Women's British University Championships 13th & 14th of April 2019,,,,,,,,,,,,,,,,,,,,,,,,,,,,,,,,,,,
Grp C,Name,Team,Div,Bwt - kg,IPF Wt Cls,lot#,Birth Year,IPF Pts Code,SQ rack,SQ-1,SQ-2,SQ-3,Best SQ,BP rack,BP-1,BP-2,BP-3,Best BP,Sub Total,DL-1,DL-2,DL-3,Best DL,PL Total,Pl/Div/Cls/Event,"Forecast
Score",Place,IPF Points,Age & Points,Events Entered,MemberID,State,Date,,
A,Sabrina Shah,UCL,U23,46.60,47,12,1996,FCP,5in,117.0,122.0,125.0,125.0,2,70.0,72.5,74.0,74.0,199.0,122.5,127.5,-132.5,127.5,326.5,1/F-O-U/47/PL,326.5,1,661.09,661.09,PL,,,13/04/2019,,
A,Yasmin Bappoo,BIRM,U23,46.10,47,6,1996,FCP,,105.0,112.5,-117.5,112.5,5,45.0,50.0,55.0,55.0,167.5,130.0,140.0,145.0,145.0,312.5,2/F-O-U/47/PL,312.5,2,634.56,634.56,PL,,,13/04/2019,,
A,Eron Taylor,LBORO,U23,45.90,47,5,1998,FCP,,77.5,85.0,87.5,87.5,5,-47.5,50.0,-55.0,50.0,137.5,120.0,127.5,-132.5,127.5,265.0,3/F-O-U/47/PL,265.0,3,531.30,541.93,PL,,,13/04/2019,,
A,Tzvetelina Tzonova,OXF,Senior,46.40,47,9,1995,FCP,,95.0,-100.0,100.0,100.0,5,-47.5,47.5,50.0,50.0,150.0,105.0,115.0,-120.0,115.0,265.0,4/F-O-U/47/PL,265.0,4,528.08,528.08,PL,,,13/04/2019,,
A,Gigi Nicholson,NOTT,U23,44.90,47,7,1999,FCP,,60.0,65.0,70.0,70.0,5,37.5,42.5,45.0,45.0,115.0,100.0,110.0,115.0,115.0,230.0,5/F-O-U/47/PL,230.0,5,459.41,473.19,PL,,,13/04/2019,,
A,Natasha Maskell,YORK,U23,45.20,47,2,1999,FCP,,75.0,82.5,85.0,85.0,3,50.0,-52.5,-57.5,50.0,135.0,85.0,92.5,-97.5,92.5,227.5,6/F-O-U/47/PL,227.5,6,452.17,465.73,PL,,,13/04/2019,,
A,Nicole Lim,WARK,U23,46.40,47,3,1996,FCP,,-67.5,67.5,70.0,70.0,6,35.0,37.5,40.0,40.0,110.0,107.5,112.5,-120.0,112.5,222.5,7/F-O-U/47/PL,222.5,7,434.98,434.98,PL,,,13/04/2019,,
A,Selina Lee,DUR,U23,44.30,47,8,1997,FCP,,-77.5,-82.5,82.5,82.5,3,35.0,37.5,40.0,40.0,122.5,82.5,87.5,92.5,92.5,215.0,8/F-O-U/47/PL,215.0,8,428.75,433.04,PL,,,13/04/2019,,
A,Nicole Ng,UCL,U23,45.80,47,5,1998,FCP,,75.0,80.0,82.5,82.5,4,35.0,37.5,40.0,40.0,122.5,82.5,87.5,92.5,92.5,215.0,9/F-O-U/47/PL,215.0,9,421.34,429.77,PL,,,13/04/2019,,
A,Tamsin Gamble,NOTT,U23,45.80,47,6,1997,FCP,,70.0,75.0,-80.0,75.0,5B,37.5,40.0,-42.5,40.0,115.0,-80.0,85.0,92.5,92.5,207.5,10/F-O-U/47/PL,207.5,10,404.75,408.80,PL,,,13/04/2019,,
A,Noor Mubarak,EXR,U23,45.90,47,4,1997,FCP,,70.0,-75.0,-75.0,70.0,5B,32.5,-35.0,-35.0,32.5,102.5,82.5,85.0,90.0,90.0,192.5,11/F-O-U/47/PL,192.5,11,371.18,374.89,PL,,,13/04/2019,,
A,Evita Widjaja,CAM,U23,45.50,47,1,1998,FCP,,50.0,55.0,57.5,57.5,5,25.0,32.5,35.0,35.0,92.5,65.0,72.5,-80.0,72.5,165.0,12/F-O-U/47/PL,165.0,12,311.60,317.83,PL,,,13/04/2019,,
C,Evita Otigbah,KCL,Senior,51.00,52,21,1994,FCP,5,127.5,132.5,137.5,137.5,4,80.0,-85.5,85.5,85.5,223.0,137.5,-145.0,145.0,145.0,368.0,1/F-O-U/52/PL,368.0,1,712.59,712.59,PL,,,13/04/2019,,
C,Amrita Panesar,CAM,U23,47.30,52,11,1998,FCP,4,90.0,95.0,100.0,100.0,4,55.0,60.0,-62.5,60.0,160.0,115.0,127.5,132.5,132.5,292.5,2/F-O-U/52/PL,292.5,2,581.86,593.50,PL,,,13/04/2019,,
C,Lara Acosta,BIRM,U23,51.80,52,26,1997,FCP,6,85.0,92.5,97.5,97.5,4,45.0,50.0,-52.5,50.0,147.5,117.5,120.0,125.0,125.0,272.5,3/F-O-U/52/PL,272.5,3,513.22,518.36,PL,,,13/04/2019,,
C,Tal Rosenbaum,OXF,U23,49.60,52,14,1997,FCP,8,80.0,85.0,-90.0,85.0,5,55.0,57.5,-60.0,57.5,142.5,100.0,112.5,125.0,125.0,267.5,4/F-O-U/52/PL,267.5,4,514.54,519.68,PL,,,13/04/2019,,
B,Mona Shafiei,BRN,U23,50.50,52,17,1999,FCP,8,80.0,87.5,92.5,92.5,4,50.0,52.5,55.0,55.0,147.5,102.5,110.0,117.5,117.5,265.0,5/F-O-U/52/PL,265.0,5,504.57,519.71,PL,,,13/04/2019,,
B,Deanna Yiu,UCL,U23,51.40,52,24,1998,FCP,9,92.5,97.5,100.0,100.0,8,40.0,42.5,-45.0,42.5,142.5,110.0,117.5,122.5,122.5,265.0,6/F-O-U/52/PL,265.0,6,500.02,510.02,PL,,,13/04/2019,,
C,Jessica May,EXR,U23,51.20,52,22,1997,FCP,9,90.0,95.0,-100.0,95.0,6,47.5,50.0,-52.5,50.0,145.0,100.0,105.0,110.0,110.0,255.0,7/F-O-U/52/PL,255.0,7,480.63,485.43,PL,,,13/04/2019,,
C,Atousa Faraji Khyabani,KCL,Senior,51.60,52,25,1995,FCP,8,75.0,82.5,-90.0,82.5,4,42.5,47.5,-52.5,47.5,130.0,100.0,107.5,112.5,112.5,242.5,8/F-O-U/52/PL,242.5,8,453.41,453.41,PL,,,13/04/2019,,
C,Ishka Trace-Kleeberg,KENT,U23,48.30,52,12,1998,FCP,9,75.0,80.0,-82.5,80.0,4,50.0,52.5,-55.0,52.5,132.5,87.5,92.5,-95.0,92.5,225.0,9/F-O-U/52/PL,225.0,9,431.53,440.16,PL,,,13/04/2019,,
C,Stephanie Canlas,BIRM,U23,49.20,52,13,1999,FCP,7,72.5,77.5,80.0,80.0,5,40.0,42.5,-45.0,42.5,122.5,85.0,92.5,100.0,100.0,222.5,10/F-O-U/52/PL,222.5,10,422.36,435.03,PL,,,13/04/2019,,
B,Francesca Broad,NOTT,U23,51.30,52,23,1998,FCP,6,67.5,70.0,72.5,72.5,4,42.5,45.0,47.5,47.5,120.0,82.5,87.5,92.5,92.5,212.5,11/F-O-U/52/PL,212.5,11,393.63,401.50,PL,,,13/04/2019,,
B,Jemmina Milford,UCL,U23,50.70,52,18,2000,FCP,11,72.5,75.0,77.5,77.5,9,37.5,40.0,42.5,42.5,120.0,80.0,85.0,90.0,90.0,210.0,12/F-O-U/52/PL,210.0,12,390.63,406.26,PL,,,13/04/2019,,
C,Katie Vickers,SMUL,U23,47.30,52,10,1998,FCP,8,65.0,70.0,-75.0,70.0,7,37.5,-40.0,-40.0,37.5,107.5,80.0,85.0,-90.0,85.0,192.5,13/F-O-U/52/PL,192.5,13,365.94,373.26,PL,,,13/04/2019,,
B,Alice Walters,BRN,U23,49.80,52,15,1999,FCP,10,60.0,65.0,70.0,70.0,5,40.0,42.5,-45.0,42.5,112.5,80.0,-87.5,-87.5,80.0,192.5,14/F-O-U/52/PL,192.5,14,357.50,368.22,PL,,,13/04/2019,,
B,Serena Russell,WARK,U23,49.90,52,16,1997,FCP,6,65.0,70.0,75.0,75.0,5,32.5,35.0,37.5,37.5,112.5,70.0,75.0,77.5,77.5,190.0,15/F-O-U/52/PL,190.0,15,351.99,355.51,PL,,,13/04/2019,,
B,Michelle Wan,CAM,U23,50.90,52,19,1996,FCP,8,57.5,65.0,70.0,70.0,7,35.0,37.5,-40.0,37.5,107.5,70.0,77.5,80.0,80.0,187.5,16/F-O-U/52/PL,187.5,16,343.87,343.87,PL,,,13/04/2019,,
B,Olivia Shiels,OXF,U23,51.00,52,20,1998,FCP,9,37.5,-42.5,42.5,42.5,7,27.5,-32.5,-32.5,27.5,70.0,55.0,60.0,-62.5,60.0,130.0,17/F-O-U/52/PL,130.0,17,226.03,230.55,PL,,,13/04/2019,,
C,Amy Viner,NOTT,U23,55.30,57,4,,FCP,9,130.0,-137.5,-137.5,130.0,6,60.0,65.0,67.5,67.5,197.5,-160.0,175.0,-185.5,175.0,372.5,1/F-O-U/57/PL,372.5,1,690.21,1759.35,PL,,,13/04/2019,,
C,Heather Christie,GLOS,U23,52.90,57,29,,FCP,7,117.5,122.5,127.5,127.5,4,60.0,65.0,-67.5,65.0,192.5,135.0,145.0,155.0,155.0,347.5,2/F-O-U/57/PL,347.5,2,657.26,1675.36,PL,,,13/04/2019,,
C,Laura Statham,EXR,U23,56.80,57,48,,FCP,9,115.0,122.5,125.0,125.0,6,60.0,65.0,-67.5,65.0,190.0,132.5,142.5,150.0,150.0,340.0,3/F-O-U/57/PL,340.0,3,618.76,1577.22,PL,,,13/04/2019,,
C,Isabelle Lam,NOTT,U23,55.80,57,37,,FCP,8,-130.0,130.0,-135.0,130.0,5,60.0,62.5,65.0,65.0,195.0,132.5,140.0,-147.5,140.0,335.0,4/F-O-U/57/PL,335.0,4,614.82,1567.18,PL,,,13/04/2019,,
C,Hannah Hickinbotham,WARK,U23,57.00,57,50,,FCP,8,107.5,112.5,117.5,117.5,5,62.5,67.5,70.0,70.0,187.5,125.0,132.5,140.0,140.0,327.5,5/F-O-U/57/PL,327.5,5,593.96,1514.00,PL,,,13/04/2019,,
C,Lydia Forrest,BRN,U23,56.20,57,44,,FCP,8,107.5,-115.0,115.0,115.0,3,60.0,62.5,65.0,65.0,180.0,127.5,-135.0,-135.0,127.5,307.5,6/F-O-U/57/PL,307.5,6,559.96,1427.33,PL,,,13/04/2019,,
C,Miriam Andrews,SOTON,Senior,55.60,57,33,,FCP,11,95.0,100.0,105.0,105.0,7,52.5,55.0,-60.0,55.0,160.0,125.0,135.0,145.0,145.0,305.0,7/F-O-U/57/PL,305.0,7,558.16,1422.74,PL,,,13/04/2019,,
B,Francesca Best,OXF,U23,56.30,57,45,,FCP,8,97.5,105.0,107.5,107.5,5,55.0,60.0,62.5,62.5,170.0,115.0,122.5,132.5,132.5,302.5,8/F-O-U/57/PL,302.5,8,549.91,1401.71,PL,,,13/04/2019,,
B,Beth Stirling,BIRM,U23,55.80,57,36,,FCP,9,95.0,102.5,-107.5,102.5,5,50.0,55.0,-57.5,55.0,157.5,125.0,132.5,140.0,140.0,297.5,9/F-O-U/57/PL,297.5,9,542.74,1383.43,PL,,,13/04/2019,,
B,Holly Chesney,YORK,U23,56.20,57,43,,FCP,7,95.0,102.5,-107.5,102.5,5,42.5,47.5,-50.0,47.5,150.0,120.0,130.0,-142.5,130.0,280.0,10/F-O-U/57/PL,280.0,10,507.34,1293.21,PL,,,13/04/2019,,
B,Claire Ben Chorin,UCL,U23,55.40,57,5,,FCP,7,87.5,92.5,97.5,97.5,5,52.5,55.0,57.5,57.5,155.0,110.0,117.5,122.5,122.5,277.5,11/F-O-U/57/PL,277.5,11,506.05,1289.92,PL,,,13/04/2019,,
B,Aimee Jones,BGR,Senior,56.10,57,41,,FCP,9,-85.0,87.5,92.5,92.5,5,47.5,52.5,55.0,55.0,147.5,115.0,130.0,-137.5,130.0,277.5,12/F-O-U/57/PL,277.5,12,502.99,1282.12,PL,,,13/04/2019,,
B,Chiedza Mubaiwa,BIRM,Senior,54.60,57,23,,FCP,9,85.0,90.0,95.0,95.0,5,52.5,57.5,-62.5,57.5,152.5,107.5,115.0,120.0,120.0,272.5,13/F-O-U/57/PL,272.5,13,499.91,1274.26,PL,,,13/04/2019,,
C,M J Malubay,DUR,Senior,54.80,57,25,,FCP,6,85.0,92.5,100.0,100.0,5,37.5,40.0,-45.0,40.0,140.0,110.0,122.5,132.5,132.5,272.5,14/F-O-U/57/PL,272.5,14,499.02,1271.99,PL,,,13/04/2019,,
B,Anisha Chopra,OXF,U23,56.00,57,40,,FCP,8,87.5,92.5,97.5,97.5,6,45.0,50.0,-52.5,50.0,147.5,107.5,120.0,122.5,122.5,270.0,15/F-O-U/57/PL,270.0,15,489.04,1246.55,PL,,,13/04/2019,,
A,Saffron Blacker,BIRM,U23,56.00,57,38,,FCP,9,72.5,82.5,-90.0,82.5,6,55.0,-60.0,60.0,60.0,142.5,110.0,117.5,125.0,125.0,267.5,16/F-O-U/57/PL,267.5,16,484.24,1234.33,PL,,,13/04/2019,,
B,Shona Hughes,KENT,U23,56.90,57,49,,FCP,10,95.0,100.0,-105.0,100.0,4,55.0,57.5,-60.0,57.5,157.5,105.0,-110.0,110.0,110.0,267.5,17/F-O-U/57/PL,267.5,17,480.62,1225.10,PL,,,13/04/2019,,
B,Ursula Davies,LBORO,Senior,56.40,57,46,,FCP,9,77.5,85.0,90.0,90.0,2,55.0,60.0,62.5,62.5,152.5,95.0,102.5,107.5,107.5,260.0,18/F-O-U/57/PL,260.0,18,468.30,1193.70,PL,,,13/04/2019,,
B,Samin Moghimiasl,CAM,U23,56.80,57,47,,FCP,9,90.0,95.0,-97.5,95.0,4,35.0,-40.0,40.0,40.0,135.0,97.5,107.5,-117.5,107.5,242.5,19/F-O-U/57/PL,242.5,19,433.52,1105.04,PL,,,13/04/2019,,
B,Laura Petch,KENT,Senior,55.70,57,34,,FCP,10,77.5,82.5,-87.5,82.5,5,-47.5,47.5,50.0,50.0,132.5,95.0,100.0,105.0,105.0,237.5,20/F-O-U/57/PL,237.5,20,427.74,1090.31,PL,,,13/04/2019,,
B,Joelle Hung,KCL,U23,54.40,57,13,,FCP,9,-75.0,75.0,82.5,82.5,5,40.0,47.5,50.0,50.0,132.5,75.0,85.0,92.5,92.5,225.0,21/F-O-U/57/PL,225.0,21,407.93,1039.80,PL,,,13/04/2019,,
A,Saumya Vatsa,KENT,U23,55.50,57,6,,FCP,10,-67.5,67.5,72.5,72.5,5,42.5,45.0,47.5,47.5,120.0,92.5,97.5,102.5,102.5,222.5,22/F-O-U/57/PL,222.5,22,399.50,1018.32,PL,,,13/04/2019,,
A,Laura Beaumont,EXR,U23,55.10,57,3,,FCP,9,82.5,-90.0,90.0,90.0,5,30.0,32.5,-35.0,32.5,122.5,87.5,95.0,-100.0,95.0,217.5,23/F-O-U/57/PL,217.5,23,391.07,996.85,PL,,,13/04/2019,,
A,Raha Salehi,BRN,U23,55.60,57,7,,FCP,9,62.5,-67.5,67.5,67.5,3,42.5,45.0,50.0,50.0,117.5,80.0,87.5,95.0,95.0,212.5,24/F-O-U/57/PL,212.5,24,379.91,968.40,PL,,,13/04/2019,,
A,Emily Fellingham,EXR,U23,56.00,57,39,,FCP,11,70.0,77.5,82.5,82.5,6,35.0,37.5,40.0,40.0,122.5,77.5,85.0,90.0,90.0,212.5,25/F-O-U/57/PL,212.5,25,378.76,965.47,PL,,,13/04/2019,,
A,Helen Fishwick,CAM,Senior,56.20,57,42,,FCP,10,62.5,67.5,-72.5,67.5,6,37.5,40.0,-45.0,40.0,107.5,95.0,102.5,-110.0,102.5,210.0,26/F-O-U/57/PL,210.0,26,373.41,951.83,PL,,,13/04/2019,,
A,Poppy Anne-Marie Clark,NOTT,U23,54.20,57,11,,FCP,9,62.5,67.5,72.5,72.5,6,27.5,32.5,35.0,35.0,107.5,85.0,92.5,95.0,95.0,202.5,27/F-O-U/57/PL,202.5,27,364.50,929.10,PL,,,13/04/2019,,
A,Alex AnYee Low,UCL,U23,55.00,57,1,,FCP,9,60.0,65.0,70.0,70.0,6,32.5,35.0,-37.5,35.0,105.0,80.0,85.0,90.0,90.0,195.0,28/F-O-U/57/PL,195.0,28,347.71,886.31,PL,,,13/04/2019,,
A,Charlotte Kelsall,BGR,U23,55.80,57,35,,FCP,9,-65.0,65.0,67.5,67.5,5,40.0,-42.5,-45.0,40.0,107.5,85.0,-87.5,-87.5,85.0,192.5,29/F-O-U/57/PL,192.5,29,340.89,868.93,PL,,,13/04/2019,,
A,Lucy Forde,CAM,U23,55.60,57,8,,FCP,12,62.5,67.5,70.0,70.0,7,30.0,32.5,-35.0,32.5,102.5,-80.0,82.5,87.5,87.5,190.0,30/F-O-U/57/PL,190.0,30,336.56,857.89,PL,,,13/04/2019,,
A,Hannah Sharp,BRN,U23,55.10,57,2,,FCP,10,57.5,62.5,67.5,67.5,4,35.0,42.5,-45.0,42.5,110.0,65.0,72.5,77.5,77.5,187.5,31/F-O-U/57/PL,187.5,31,332.92,848.60,PL,,,13/04/2019,,
C,Rosa Alcantara,EXR,U23,54.50,57,30,,FCP,11,55.0,-60.0,62.5,62.5,8,30.0,35.0,-40.0,35.0,97.5,-70.0,75.0,85.0,85.0,182.5,32/F-O-U/57/PL,182.5,32,324.59,827.39,PL,,,13/04/2019,,
B,Isabelle Wickrema,EXR,U23,54.70,57,15,,FCP,8,100.0,107.5,110.0,110.0,4,55.0,60.0,62.5,62.5,172.5,-110.0,-112.5,-112.5,0.0,0.0,,0.0,,0.00,0.00,PL,,,13/04/2019,,
A,Victoria Hammond,BIRM,Senior,62.40,63,11,,FCP,8,-132.5,132.5,145.0,145.0,3,67.5,70.0,-72.5,70.0,215.0,157.5,167.5,170.0,170.0,385.0,1/F-O-U/63/PL,385.0,1,671.33,1711.23,PL,,,14/04/2019,,
A,Madelaine Daniel,NOR,U23,62.40,63,10,,FCP,9,135.0,142.5,-153.0,142.5,6,75.0,80.0,-85.0,80.0,222.5,150.0,160.0,-165.0,160.0,382.5,2/F-O-U/63/PL,382.5,2,666.86,1699.83,PL,,,14/04/2019,,
A,Karenjeet Kaur Bains,DUR,U23,62.40,63,9,,FCP,8,125.0,-130.0,130.0,130.0,6,72.5,75.0,77.5,77.5,207.5,150.0,160.0,167.5,167.5,375.0,3/F-O-U/63/PL,375.0,3,653.44,1665.62,PL,,,14/04/2019,,
A,Stephanie Gragon,LBORO,Senior,61.30,63,8,,FCP,10,120.0,130.0,-135.0,130.0,4,70.0,75.0,-77.5,75.0,205.0,142.5,155.0,165.0,165.0,370.0,4/F-O-U/63/PL,370.0,4,650.12,1657.17,PL,,,14/04/2019,,
A,Rianna Graham,EXR,Senior,62.60,63,7,,FCP,7,127.5,135.0,137.5,137.5,4,75.0,80.0,82.5,82.5,220.0,140.0,150.0,-155.0,150.0,370.0,5/F-O-U/63/PL,370.0,5,643.49,1640.26,PL,,,14/04/2019,,
A,Sophie Smith,OXF,U23,61.80,63,4,,FCP,11,107.5,-115.0,115.0,115.0,5,67.5,72.5,75.0,75.0,190.0,142.5,155.0,-157.5,155.0,345.0,6/F-O-U/63/PL,345.0,6,602.53,1535.84,PL,,,14/04/2019,,
A,Tara Pigott,WARK,U23,62.20,63,6,,FCP,7,102.5,112.5,117.5,117.5,5,70.0,75.0,-80.0,75.0,192.5,132.5,142.5,147.5,147.5,340.0,7/F-O-U/63/PL,340.0,7,591.71,1508.26,PL,,,14/04/2019,,
A,Francesca Bolt,LBORO,Senior,60.20,63,3,,FCP,9,110.0,115.0,120.0,120.0,5,60.0,62.5,65.0,65.0,185.0,132.5,140.0,145.0,145.0,330.0,8/F-O-U/63/PL,330.0,8,582.78,1485.51,PL,,,14/04/2019,,
A,isobel Davis,BIRM,U23,60.50,63,2,,FCP,10,107.5,112.5,115.0,115.0,4,60.0,-65.0,65.0,65.0,180.0,132.5,140.0,145.0,145.0,325.0,9/F-O-U/63/PL,325.0,9,572.27,1458.71,PL,,,14/04/2019,,
A,Olivia Price,RAU,U23,62.20,63,5,,FCP,10,102.5,107.5,112.5,112.5,4,65.0,70.0,-72.5,70.0,182.5,137.5,142.5,-147.5,142.5,325.0,10/F-O-U/63/PL,325.0,10,564.81,1439.70,PL,,,14/04/2019,,
B,Lauren Cory,LEEDS,U23,62.10,63,25,,FCP,10,-90.0,90.0,100.0,100.0,7,52.5,57.5,-62.5,57.5,157.5,125.0,137.5,150.0,150.0,307.5,11/F-O-U/63/PL,307.5,11,533.82,1360.72,PL,,,14/04/2019,,
B,Luisa Vargas,SMT,U23,61.70,63,27,,FCP,10,-100.0,100.0,105.0,105.0,6,55.0,57.5,60.0,60.0,165.0,125.0,132.5,-135.0,132.5,297.5,12/F-O-U/63/PL,297.5,12,517.40,1318.84,PL,,,14/04/2019,,
B,Sophie Lester,NOTT,U23,62.10,63,23,,FCP,9,100.0,107.5,-112.5,107.5,6,47.5,52.5,55.0,55.0,162.5,120.0,130.0,135.0,135.0,297.5,13/F-O-U/63/PL,297.5,13,515.87,1314.96,PL,,,14/04/2019,,
B,Liv Harris,BRN,U23,60.00,63,26,,FCP,10,90.0,-100.0,-100.0,90.0,5,50.0,55.0,60.0,60.0,150.0,125.0,135.0,142.5,142.5,292.5,14/F-O-U/63/PL,292.5,14,514.95,1312.60,PL,,,14/04/2019,,
B,Florence Eastwood,KCL,Senior,62.40,63,28,,FCP,11,-105.0,105.0,110.0,110.0,4,52.5,55.0,-57.5,55.0,165.0,120.0,127.5,-135.0,127.5,292.5,15/F-O-U/63/PL,292.5,15,505.80,1289.28,PL,,,14/04/2019,,
B,Riana Henry,KCL,U23,61.80,63,24,,FCP,7,100.0,112.5,117.5,117.5,7,47.5,-52.5,-52.5,47.5,165.0,110.0,117.5,125.0,125.0,290.0,16/F-O-U/63/PL,290.0,16,503.51,1283.45,PL,,,14/04/2019,,
B,Caitlin Berry,BIRM,U23,60.70,63,29,,FCP,11,102.5,110.0,-117.5,110.0,5,57.5,-62.5,-62.5,57.5,167.5,107.5,120.0,-130.0,120.0,287.5,17/F-O-U/63/PL,287.5,17,503.09,1282.38,PL,,,14/04/2019,,
A,Louise Jones,SURR,Senior,61.50,63,4,,FCP,11,100.0,105.0,110.0,110.0,6,55.0,-60.0,-60.0,55.0,165.0,110.0,117.5,122.5,122.5,287.5,18/F-O-U/63/PL,287.5,18,500.11,1274.77,PL,,,14/04/2019,,
B,Sarah Barron,CAM,Senior,59.60,63,31,,FCP,9,97.5,102.5,-107.5,102.5,5,55.0,60.0,-62.5,60.0,162.5,107.5,117.5,122.5,122.5,285.0,19/F-O-U/63/PL,285.0,19,502.74,1281.48,PL,,,14/04/2019,,
B,Holly Seglah,BIRM,U23,61.50,63,30,,FCP,13,95.0,-102.5,-102.5,95.0,9,55.0,-57.5,57.5,57.5,152.5,120.0,130.0,-140.0,130.0,282.5,20/F-O-U/63/PL,282.5,20,491.08,1251.76,PL,,,14/04/2019,,
A,Dominique Harris,UCL,U23,60.50,63,6,,FCP,12,85.0,90.0,95.0,95.0,6,47.5,50.0,-52.5,50.0,145.0,125.0,130.0,135.0,135.0,280.0,21/F-O-U/63/PL,280.0,21,490.17,1249.44,PL,,,14/04/2019,,
B,Hannah O'Brien,LBORO,U23,60.00,63,22,,FCP,12,87.5,95.0,-100.0,95.0,5,52.5,57.5,60.0,60.0,155.0,100.0,107.5,112.5,112.5,267.5,22/F-O-U/63/PL,267.5,22,469.10,1195.73,PL,,,14/04/2019,,
A,Krittika D'Silva,CAM,Senior,61.50,63,5,,FCP,8,77.5,82.5,87.5,87.5,6,45.0,50.0,55.0,55.0,142.5,100.0,110.0,120.0,120.0,262.5,23/F-O-U/63/PL,262.5,23,454.96,1159.70,PL,,,14/04/2019,,
B,Emma Williams,EXR,U23,59.40,63,18,,FCP,12,82.5,90.0,95.0,95.0,9,45.0,-52.5,52.5,52.5,147.5,100.0,107.5,112.5,112.5,260.0,24/F-O-U/63/PL,260.0,24,457.38,1165.85,PL,,,14/04/2019,,
B,Amy Whittaker,OXF,U23,59.30,63,20,,FCP,11,90.0,-97.5,97.5,97.5,6,47.5,-52.5,52.5,52.5,150.0,95.0,102.5,105.0,105.0,255.0,25/F-O-U/63/PL,255.0,25,448.48,1143.18,PL,,,14/04/2019,,
A,Alex Lidstone,SUSS,Senior,60.90,63,8,,FCP,9,77.5,82.5,87.5,87.5,8,47.5,52.5,-55.0,52.5,140.0,105.0,115.0,-122.5,115.0,255.0,26/F-O-U/63/PL,255.0,26,443.29,1129.94,PL,,,14/04/2019,,
B,Christina Langer,BRN,U23,61.70,63,21,,FCP,8,80.0,85.0,-90.0,85.0,4,50.0,52.5,55.0,55.0,140.0,102.5,110.0,115.0,115.0,255.0,27/F-O-U/63/PL,255.0,27,440.81,1123.61,PL,,,14/04/2019,,
A,Abigail England,NOTT,Senior,58.90,63,7,,FCP,7,85.0,90.0,-95.0,90.0,7,42.5,47.5,50.0,50.0,140.0,95.0,102.5,107.5,107.5,247.5,28/F-O-U/63/PL,247.5,28,435.91,1111.14,PL,,,14/04/2019,,
B,Carina Kaltenbach,OXF,U23,59.80,63,17,,FCP,11,80.0,85.0,-90.0,85.0,6,50.0,-55.0,55.0,55.0,140.0,95.0,102.5,107.5,107.5,247.5,29/F-O-U/63/PL,247.5,29,433.04,1103.82,PL,,,14/04/2019,,
A,Ilaria Beechey-Newman,OXF,U23,57.40,63,15,,FCP,13,72.5,80.0,-85.0,80.0,7,45.0,47.5,50.0,50.0,130.0,90.0,97.5,105.0,105.0,235.0,30/F-O-U/63/PL,235.0,30,417.34,1063.80,PL,,,14/04/2019,,
A,Jessica Rigley,CAM,U23,60.80,63,3,,FCP,13,60.0,65.0,70.0,70.0,7,45.0,47.5,50.0,50.0,120.0,100.0,105.0,110.0,110.0,230.0,31/F-O-U/63/PL,230.0,31,398.14,1014.85,PL,,,14/04/2019,,
A,Holly Parker,QMUL,U23,62.50,63,2,,FCP,13,70.0,75.0,-77.5,75.0,7,37.5,40.0,42.5,42.5,117.5,87.5,92.5,97.5,97.5,215.0,32/F-O-U/63/PL,215.0,32,366.88,935.18,PL,,,14/04/2019,,
A,Carolyn Singleton,DEM,Senior,57.80,63,14,,FCP,11,-75.0,77.5,-80.0,77.5,8,35.0,-40.0,40.0,40.0,117.5,80.0,90.0,95.0,95.0,212.5,33/F-O-U/63/PL,212.5,33,373.81,952.85,PL,,,14/04/2019,,
A,Ailish Stanton,LIV,U23,61.60,63,13,,FCP,11,50.0,60.0,65.0,65.0,7,40.0,45.0,47.5,47.5,112.5,85.0,95.0,100.0,100.0,212.5,34/F-O-U/63/PL,212.5,34,364.44,928.97,PL,,,14/04/2019,,
A,Chandrani Gupta,WARK,U23,57.50,63,10,,FCP,8,60.0,65.0,70.0,70.0,5,35.0,-37.5,37.5,37.5,107.5,70.0,77.5,80.0,80.0,187.5,35/F-O-U/63/PL,187.5,35,327.49,834.78,PL,,,14/04/2019,,
A,Zoe Raouf,EXR,U23,61.00,63,9,,FCP,9,42.5,47.5,52.5,52.5,6,27.5,-32.5,-32.5,27.5,80.0,75.0,80.0,85.0,85.0,165.0,36/F-O-U/63/PL,165.0,36,279.62,712.76,PL,,,14/04/2019,,
B,Sophie Culshaw,UEA,Senior,69.60,72,20,,FCP,8,165.0,170.0,-172.5,170.0,4,-80.0,80.0,-85.0,80.0,250.0,157.5,165.0,172.5,172.5,422.5,1/F-O-U/72/PL,422.5,1,700.46,1785.48,PL,,,14/04/2019,,
B,Suzanne Goulder,CAM,U23,69.60,72,19,,FCP,11,130.0,137.5,142.5,142.5,5,-75.0,75.0,80.0,80.0,222.5,152.5,162.5,167.5,167.5,390.0,2/F-O-U/72/PL,390.0,2,645.98,1646.60,PL,,,14/04/2019,,
B,Natalie Cameron,QMUL,Senior,71.05,72,18,,FCP,13,115.0,120.0,125.0,125.0,5,82.5,87.5,90.0,90.0,215.0,150.0,160.0,172.5,172.5,387.5,3/F-O-U/72/PL,387.5,3,635.84,1620.76,PL,,,14/04/2019,,
B,Kate Pattison,WARK,U23,70.90,72,17,,FCP,11,135.0,142.5,-147.5,142.5,7,67.5,72.5,-75.0,72.5,215.0,152.5,160.0,170.0,170.0,385.0,4/F-O-U/72/PL,385.0,4,632.30,1611.72,PL,,,14/04/2019,,
B,Nicole Ola,EXR,U23,68.40,72,13,,FCP,14,125.0,132.5,137.5,137.5,9,70.0,75.0,77.5,77.5,215.0,140.0,152.5,-160.0,152.5,367.5,5/F-O-U/72/PL,367.5,5,613.04,1562.65,PL,,,14/04/2019,,
B,Safiya Chiappa-Forrester,NOTT,U23,67.00,72,16,,FCP,11,140.0,147.5,-152.5,147.5,5,62.5,67.5,70.0,70.0,217.5,142.5,-150.0,-150.0,142.5,360.0,6/F-O-U/72/PL,360.0,6,606.01,1544.71,PL,,,14/04/2019,,
B,Holly O'Shea,LBORO,U23,68.25,72,11,,FCP,10,110.0,117.5,-122.5,117.5,5,77.5,82.5,-85.0,82.5,200.0,140.0,147.5,152.5,152.5,352.5,7/F-O-U/72/PL,352.5,7,588.22,1499.37,PL,,,14/04/2019,,
A,Lottie Blythe,LBORO,U23,69.05,72,9,,FCP,13,110.0,117.5,122.5,122.5,5,-77.5,77.5,-80.0,77.5,200.0,137.5,145.0,152.5,152.5,352.5,8/F-O-U/72/PL,352.5,8,585.17,1491.59,PL,,,14/04/2019,,
B,Ashley Lewis,DEM,U23,70.25,72,14,,FCP,8,107.5,112.5,-117.5,112.5,6,82.5,87.5,92.5,92.5,205.0,132.5,142.5,147.5,147.5,352.5,9/F-O-U/72/PL,352.5,9,580.73,1480.27,PL,,,14/04/2019,,
B,Eleanor Boutell,CAM,U23,63.10,72,15,,FCP,8,125.0,-132.5,132.5,132.5,4,60.0,65.0,67.5,67.5,200.0,-130.0,137.5,145.0,145.0,345.0,10/F-O-U/72/PL,345.0,10,596.59,1520.70,PL,,,14/04/2019,,
B,Holly Hume,DEM,U23,70.65,72,12,,FCP,12,115.0,122.5,130.0,130.0,6,70.0,75.0,80.0,80.0,210.0,120.0,132.5,-140.0,132.5,342.5,11/F-O-U/72/PL,342.5,11,562.66,1434.23,PL,,,14/04/2019,,
A,Beatrice Fishwick,CAM,U23,63.25,72,3,,FCP,9,87.5,95.0,105.0,105.0,5,72.5,77.5,80.0,80.0,185.0,125.0,135.0,145.0,145.0,330.0,12/F-O-U/72/PL,330.0,12,569.30,1451.14,PL,,,14/04/2019,,
A,Emma Richardson,OXF,U23,63.10,72,8,,FCP,13,107.5,112.5,-117.5,112.5,6,52.5,57.5,-60.0,57.5,170.0,125.0,132.5,140.0,140.0,310.0,13/F-O-U/72/PL,310.0,13,534.38,1362.14,PL,,,14/04/2019,,
A,Fanni Fabini,WARK,U23,67.65,72,7,,FCP,12,115.0,117.5,-125.0,117.5,5,55.0,60.0,-62.5,60.0,177.5,120.0,132.5,-140.0,132.5,310.0,14/F-O-U/72/PL,310.0,14,518.12,1320.69,PL,,,14/04/2019,,
A,Robyn Ellis,BRIST,U23,68.50,72,9,,FCP,14,100.0,110.0,-115.0,110.0,7,60.0,65.0,-67.5,65.0,175.0,120.0,127.5,135.0,135.0,310.0,15/F-O-U/72/PL,310.0,15,515.35,1313.62,PL,,,14/04/2019,,
A,Selina Wells,BRN,U23,70.05,72,10,,FCP,12,122.5,-127.5,-135.0,122.5,7,47.5,50.0,52.5,52.5,175.0,125.0,130.0,135.0,135.0,310.0,16/F-O-U/72/PL,310.0,16,510.47,1301.19,PL,,,14/04/2019,,
A,Olivia Porter,BGR,U23,67.75,72,5,,FCP,13,95.0,105.0,-110.0,105.0,9,60.0,65.0,-70.0,65.0,170.0,125.0,135.0,-145.0,135.0,305.0,17/F-O-U/72/PL,305.0,17,509.28,1298.15,PL,,,14/04/2019,,
A,Charley Bond,BRN,U23,69.25,72,3,,FCP,12,105.0,110.0,-115.0,110.0,3,65.0,-70.0,70.0,70.0,180.0,115.0,120.0,125.0,125.0,305.0,18/F-O-U/72/PL,305.0,18,504.55,1286.10,PL,,,14/04/2019,,
B,Kajsa Dinesson,YORK,U23,71.05,72,16,,FCP,9,95.0,100.0,105.0,105.0,4,52.5,55.0,57.5,57.5,162.5,120.0,130.0,137.5,137.5,300.0,19/F-O-U/72/PL,300.0,19,490.88,1251.25,PL,,,14/04/2019,,
A,Kathryn Russell,BIRM,U23,68.85,72,2,,FCP,14,95.0,105.0,112.5,112.5,9,52.5,57.5,-60.0,57.5,170.0,105.0,115.0,125.0,125.0,295.0,20/F-O-U/72/PL,295.0,20,488.92,1246.25,PL,,,14/04/2019,,
A,Emily-Rose Schmidt,UCL,Senior,66.30,72,2,,FCP,15,102.5,107.5,112.5,112.5,5,57.5,62.5,65.0,65.0,177.5,102.5,107.5,112.5,112.5,290.0,21/F-O-U/72/PL,290.0,21,488.19,1244.40,PL,,,14/04/2019,,
A,Niamh Walshe,OXF,Senior,63.10,72,6,,FCP,11,100.0,107.5,-112.5,107.5,6,60.0,62.5,-65.0,62.5,170.0,112.5,-117.5,-117.5,112.5,282.5,22/F-O-U/72/PL,282.5,22,485.51,1237.56,PL,,,14/04/2019,,
A,Jay Wymer,BRN,U23,67.90,72,4,,FCP,12,95.0,-100.0,100.0,100.0,8,47.5,50.0,52.5,52.5,152.5,110.0,120.0,127.5,127.5,280.0,23/F-O-U/72/PL,280.0,23,466.27,1188.53,PL,,,14/04/2019,,
A,Kate Ottaway,BRN,U23,68.40,72,5,,FCP,12,92.5,100.0,105.0,105.0,5,47.5,-52.5,52.5,52.5,157.5,107.5,112.5,120.0,120.0,277.5,24/F-O-U/72/PL,277.5,24,460.63,1174.14,PL,,,14/04/2019,,
B,Augusta Clayton,EXR,U23,65.45,72,14,,FCP,9,92.5,100.0,105.0,105.0,5,47.5,52.5,57.5,57.5,162.5,95.0,102.5,107.5,107.5,270.0,25/F-O-U/72/PL,270.0,25,456.14,1162.70,PL,,,14/04/2019,,
B,Emma Barber,DEM,U23,65.10,72,13,,FCP,13,-90.0,90.0,97.5,97.5,8,45.0,50.0,55.0,55.0,152.5,92.5,100.0,-105.0,100.0,252.5,26/F-O-U/72/PL,252.5,26,426.65,1087.53,PL,,,14/04/2019,,
B,Jasmin Kaur,DEM,U23,66.00,72,17,,FCP,14,75.0,-80.0,80.0,80.0,9,45.0,50.0,52.5,52.5,132.5,102.5,112.5,120.0,120.0,252.5,27/F-O-U/72/PL,252.5,27,424.28,1081.49,PL,,,14/04/2019,,
A,Camille Willhite,EXR,Senior,68.75,72,7,,FCP,11,80.0,87.5,92.5,92.5,7,42.5,47.5,50.0,50.0,142.5,97.5,105.0,110.0,110.0,252.5,28/F-O-U/72/PL,252.5,28,417.46,1064.10,PL,,,14/04/2019,,
B,Chloe Thomas,EXR,U23,64.25,72,15,,FCP,12,92.5,97.5,100.0,100.0,6,35.0,40.0,-42.5,40.0,140.0,95.0,100.0,102.5,102.5,242.5,29/F-O-U/72/PL,242.5,29,411.38,1048.60,PL,,,14/04/2019,,
B,Rebecca Drake,EXR,U23,68.90,72,12,,FCP,12,80.0,82.5,85.0,85.0,9,42.5,45.0,47.5,47.5,132.5,97.5,102.5,107.5,107.5,240.0,30/F-O-U/72/PL,240.0,30,396.02,1009.46,PL,,,14/04/2019,,
A,Gemma Holzer,UCL,U23,71.05,72,6,,FCP,11,75.0,82.5,85.0,85.0,5,47.5,52.5,-55.0,52.5,137.5,90.0,95.0,100.0,100.0,237.5,31/F-O-U/72/PL,237.5,31,387.34,987.32,PL,,,14/04/2019,,
B,Ebony Harker Bannister,DEM,U23,70.25,72,19,,FCP,12,82.5,-87.5,-87.5,82.5,4,45.0,-50.0,50.0,50.0,132.5,97.5,102.5,-110.0,102.5,235.0,32/F-O-U/72/PL,235.0,32,384.80,980.85,PL,,,14/04/2019,,
A,Jessica Jackson,NOTT,Senior,63.55,72,1,,FCP,12,72.5,75.0,77.5,77.5,9,40.0,-45.0,-45.0,40.0,117.5,105.0,-112.5,112.5,112.5,230.0,33/F-O-U/72/PL,230.0,33,391.09,996.89,PL,,,14/04/2019,,
A,Imogen Ellis,EXR,U23,66.15,72,8,,FCP,14,70.0,-77.5,80.0,80.0,9,37.5,40.0,-42.5,40.0,120.0,100.0,107.5,110.0,110.0,230.0,34/F-O-U/72/PL,230.0,34,385.03,981.44,PL,,,14/04/2019,,
A,Dara Paleski,SMUL,U23,70.65,72,1,,FCP,14,70.0,75.0,-80.0,75.0,8,42.5,45.0,-50.0,45.0,120.0,97.5,105.0,110.0,110.0,230.0,35/F-O-U/72/PL,230.0,35,375.68,957.61,PL,,,14/04/2019,,
B,Chloe Stanley,EXR,U23,64.00,72,11,,FCP,12,67.5,75.0,82.5,82.5,8,40.0,-45.0,-45.0,40.0,122.5,90.0,95.0,100.0,100.0,222.5,36/F-O-U/72/PL,222.5,36,376.79,960.43,PL,,,14/04/2019,,
A,Katie Jackson,EXR,U23,69.50,72,4,,FCP,14,72.5,77.5,80.0,80.0,8,35.0,37.5,40.0,40.0,120.0,85.0,92.5,100.0,100.0,220.0,37/F-O-U/72/PL,220.0,37,361.17,920.61,PL,,,14/04/2019,,
B,Victoria Hobbs,LBORO,U23,66.45,72,20,,FCP,9,80.0,-85.0,87.5,87.5,7,40.0,45.0,-47.5,45.0,132.5,-105.0,-105.0,-105.0,0.0,0.0,,0.0,,0.00,0.00,PL,,,14/04/2019,,
B,Georgina McDonald,YORK,Senior,83.20,84,25,,FCP,14,122.5,132.5,135.0,135.0,6,70.0,75.0,-77.5,75.0,210.0,147.5,160.0,165.0,165.0,375.0,1/F-O-U/84/PL,375.0,1,575.58,1467.15,PL,,,14/04/2019,,
B,Elise White,BIRM,U23,80.00,84,22,,FCP,13,115.0,122.5,130.0,130.0,7,50.0,55.0,-60.0,55.0,185.0,137.5,147.5,160.0,160.0,345.0,2/F-O-U/84/PL,345.0,2,538.24,1371.97,PL,,,14/04/2019,,
B,Balkeen Alwabry,QMUL,U23,82.50,84,13,,FCP,10,110.0,120.0,-125.0,120.0,5,50.0,57.5,-65.0,57.5,177.5,115.0,122.5,130.0,130.0,307.5,3/F-O-U/84/PL,307.5,3,474.51,1209.52,PL,,,14/04/2019,,
B,Hannah Louise Graham,BGR,U23,80.50,84,23,,FCP,12,-65.0,65.0,75.0,75.0,8,60.0,67.5,-72.5,67.5,142.5,150.0,160.0,-170.0,160.0,302.5,4/F-O-U/84/PL,302.5,4,471.19,1201.06,PL,,,14/04/2019,,
B,Amy McCarthy,NOTT,Senior,76.90,84,20,,FCP,12,100.0,107.5,115.0,115.0,7,52.5,55.0,60.0,60.0,175.0,105.0,117.5,125.0,125.0,300.0,5/F-O-U/84/PL,300.0,5,475.58,1212.26,PL,,,14/04/2019,,
B,Yasmina Abbas,YORK,U23,79.70,84,16,,FCP,12,85.0,92.5,100.0,100.0,5,45.0,50.0,52.5,52.5,152.5,105.0,115.0,122.5,122.5,275.0,6/F-O-U/84/PL,275.0,6,430.23,1096.65,PL,,,14/04/2019,,
B,Eleanor Shaw,OXF,Senior,73.20,84,21,,FCP,15,95.0,105.0,112.5,112.5,6,50.0,55.0,-60.0,55.0,167.5,95.0,105.0,-110.0,105.0,272.5,7/F-O-U/84/PL,272.5,7,440.16,1121.97,PL,,,14/04/2019,,
B,Zoe Faiers,BGR,U23,80.80,84,19,,FCP,11,-70.0,77.5,82.5,82.5,7,40.0,42.5,47.5,47.5,130.0,90.0,105.0,120.0,120.0,250.0,8/F-O-U/84/PL,250.0,8,389.51,992.87,PL,,,14/04/2019,,
B,Jane Ambler,CAM,U23,72.50,84,17,,FCP,10,70.0,75.0,-80.0,75.0,5,50.0,55.0,-57.5,55.0,130.0,90.0,100.0,110.0,110.0,240.0,9/F-O-U/84/PL,240.0,9,388.58,990.49,PL,,,14/04/2019,,
B,Beth Taylor,BIRM,U23,81.50,84,14,,FCP,13,72.5,-82.5,82.5,82.5,9,40.0,45.0,50.0,50.0,132.5,85.0,97.5,105.0,105.0,237.5,10/F-O-U/84/PL,237.5,10,369.16,940.98,PL,,,14/04/2019,,
B,Kajal Pindoria,KCL,U23,76.10,84,18,,FCP,8,55.0,-62.5,65.0,65.0,6,32.5,35.0,37.5,37.5,102.5,65.0,72.5,77.5,77.5,180.0,11/F-O-U/84/PL,180.0,11,286.24,729.62,PL,,,14/04/2019,,
B,Maja Darlington,LEEDS,U23,81.30,84,26,,FCP,13,-120.0,-120.0,120.0,120.0,8,70.0,75.0,77.5,77.5,197.5,-170.0,-170.0,-172.5,0.0,0.0,,0.0,,0.00,0.00,PL,,,14/04/2019,,
C,Melissa Bird,AECC,U23,101.20,84+,33,,FCP,13,160.0,-170.0,170.0,170.0,8,80.0,85.0,-87.5,85.0,255.0,155.0,166.0,-172.5,166.0,421.0,1/F-O-U/84+/PL,421.0,1,598.15,1524.68,PL,,,14/04/2019,,
C,Frankie Walker,BIRM,U23,94.60,84+,31,,FCP,12,100.0,112.5,125.0,125.0,9,45.0,52.5,-57.5,52.5,177.5,130.0,145.0,160.0,160.0,337.5,2/F-O-U/84+/PL,337.5,2,494.55,1260.60,PL,,,14/04/2019,,
C,Victoria Robinson,UEA,U23,109.70,84+,28,,FCP,13,112.5,117.5,122.5,122.5,10,57.5,62.5,-65.0,62.5,185.0,132.5,140.0,150.0,150.0,335.0,3/F-O-U/84+/PL,335.0,3,467.01,1190.40,PL,,,14/04/2019,,
C,Talya Garnett,KENT,Senior,104.50,84+,32,,FCP,14,112.5,117.5,122.5,122.5,8,57.5,62.5,-65.0,62.5,185.0,137.5,142.5,147.5,147.5,332.5,4/F-O-U/84+/PL,332.5,4,471.11,1200.86,PL,,,14/04/2019,,
C,Rebecca Fawcett,BGR,U23,95.90,84+,29,,FCP,9,97.5,102.5,107.5,107.5,6,52.5,55.0,-60.0,55.0,162.5,110.0,115.0,120.0,120.0,282.5,5/F-O-U/84+/PL,282.5,5,414.39,1056.29,PL,,,14/04/2019,,
C,Laura Meier,WARK,U23,93.20,84+,30,,FCP,18,82.5,90.0,95.0,95.0,9,45.0,50.0,52.5,52.5,147.5,102.5,110.0,115.0,115.0,262.5,6/F-O-U/84+/PL,262.5,6,389.63,993.16,PL,,,14/04/2019,,
C,Sanaa Saghir,QMUL,U23,100.40,84+,27,,FCP,11,40.0,50.0,57.5,57.5,5,30.0,35.0,42.5,42.5,100.0,60.0,75.0,90.0,90.0,190.0,7/F-O-U/84+/PL,190.0,7,280.39,714.71,PL,,,14/04/2019,,
Men's British University Championships 23rd & 24th March + 13th April 2019,,,,,,,,,,,,,,,,,,,,,,,,,,,,,,,,,,,
Grp C,Name,Team,Div,Bwt - kg,IPF Wt Cls,lot#,Birth Year,IPF Pts Code,SQ rack,SQ-1,SQ-2,SQ-3,Best SQ,BP rack,BP-1,BP-2,BP-3,Best BP,Sub Total,DL-1,DL-2,DL-3,Best DL,PL Total,Pl/Div/Cls/Event,"Forecast
Score",Place,IPF Points,Age & Points,Events Entered,MemberID,State,,,
A,Robin Bermudez,NOTT,Senior,56.55,59,23,,MCP,7,157.5,168.0,173.0,173.0,5,97.5,102.5,108.0,108.0,281.0,185.0,200.0,207.5,207.5,488.5,1/M-O-U/59/PL,488.5,1,637.02,1623.76,PL,,,13/04/2019,,
A,Jansen Zhen Hao Law,UCL,U23,58.00,59,25,,MCP,10,-155.0,-165.0,165.0,165.0,7,75.0,80.0,82.5,82.5,247.5,190.0,200.0,-207.5,200.0,447.5,2/M-O-U/59/PL,447.5,2,563.52,1436.41,PL,,,13/04/2019,,
A,Edrick Velicaria,BGR,U23,58.65,59,2,,MCP,10,137.5,142.5,145.0,145.0,7,-90.0,95.0,-100.0,95.0,240.0,185.0,200.0,-210.0,200.0,440.0,3/M-O-U/59/PL,440.0,3,547.23,1394.88,PL,,,13/04/2019,,
A,Jaron Goh,BRIST,Senior,58.15,59,1,,MCP,11,125.0,127.5,140.0,140.0,7,90.0,100.0,-107.5,100.0,240.0,150.0,167.5,-185.0,167.5,407.5,4/M-O-U/59/PL,407.5,4,504.38,1285.65,PL,,,13/04/2019,,
A,Nicholas Doyle,BGR,U23,57.20,59,24,,MCP,11,85.0,90.0,100.0,100.0,6,-60.0,-60.0,60.0,60.0,160.0,100.0,112.5,-125.0,112.5,272.5,5/M-O-U/59/PL,272.5,5,314.15,800.77,PL,,,13/04/2019,,
B,Remi Rufus-Toye,CAM,U23,66.00,66,22,,,,177.5,187.5,195.5,195.5,7,-120.0,120.0,127.5,127.5,323.0,217.5,230.0,-237.5,230.0,553.0,1/M-O-U/66/PL,0.0,1,643.90,,,,,,,
B,Chris Jennings,CHIR,Senior,65.10,66,23,,,,165.0,175.0,182.5,182.5,6,120.0,127.5,-130.0,127.5,310.0,217.5,227.5,-232.5,227.5,537.5,2/M-O-U/66/PL,0.0,2,630.35,,,,,,,
B,Harri Lai,UCL,U23,63.80,66,19,,,,185.0,195.0,-202.5,195.0,8,95.0,102.5,107.5,107.5,302.5,210.0,220.0,-235.0,220.0,522.5,3/M-O-U/66/PL,0.0,3,620.45,,,,,,,
B,Azmat Habibullah,ICL,U23,65.20,66,17,,,,180.0,190.0,-195.0,190.0,7,87.5,92.5,97.5,97.5,287.5,210.0,217.5,-220.0,217.5,505.0,4/M-O-U/66/PL,0.0,4,586.37,,,,,,,
B,Chris Rattray,LBORO,Senior,64.00,66,21,,,,160.0,170.0,180.0,180.0,7,97.5,102.5,-107.5,102.5,282.5,210.0,220.0,-225.0,220.0,502.5,5/M-O-U/66/PL,0.0,5,591.93,,,,,,,
B,Jun Jie Ng,UCL,Senior,64.20,66,20,,,,172.5,182.5,-190.0,182.5,5,117.5,122.5,125.0,125.0,307.5,180.0,187.5,195.0,195.0,502.5,6/M-O-U/66/PL,0.0,6,590.42,,,,,,,
A,George-Cristian Olteanu,SOTON,U23,65.60,66,2,,,,-170.0,170.0,175.0,175.0,5,-117.5,-117.5,117.5,117.5,292.5,192.5,197.5,200.0,200.0,492.5,7/M-O-U/66/PL,0.0,7,566.94,,,,,,,
B,Sujan Sriharan,CAM,U23,63.30,66,18,,,,152.5,-162.5,162.5,162.5,7,87.5,95.0,97.5,97.5,260.0,-190.0,195.0,202.5,202.5,462.5,8/M-O-U/66/PL,0.0,8,542.99,,,,,,,
B,Jerry George,BIRM,U23,64.40,66,16,,,,145.0,155.0,162.5,162.5,8,100.0,105.0,110.0,110.0,272.5,165.0,175.0,187.5,187.5,460.0,9/M-O-U/66/PL,0.0,9,531.93,,,,,,,
A,Solomon Asghar,ICL,U23,62.30,66,15,,,,150.0,-157.5,157.5,157.5,7,100.0,-107.5,107.5,107.5,265.0,180.0,190.0,-200.0,190.0,455.0,10/M-O-U/66/PL,0.0,10,539.98,,,,,,,
A,Jeffrey Doa,SURR,U23,65.10,66,16,,,,160.0,-180.0,-200.0,160.0,8,75.0,80.0,-85.0,80.0,240.0,200.0,210.0,-217.5,210.0,450.0,11/M-O-U/66/PL,0.0,11,513.91,,,,,,,
A,Ricky Fang,UCL,U23,62.80,66,14,,,,145.0,152.5,157.5,157.5,5,95.0,97.5,-100.0,97.5,255.0,175.0,182.5,-190.0,182.5,437.5,12/M-O-U/66/PL,0.0,12,512.46,,,,,,,
A,Mitch Fung,QMUL,U23,65.20,66,1,,,,-135.0,135.0,145.0,145.0,8,90.0,100.0,-102.5,100.0,245.0,145.0,152.5,165.0,165.0,410.0,13/M-O-U/66/PL,0.0,13,460.08,,,,,,,
A,Kieran Venner,YORK,U23,64.20,66,12,,,,110.0,127.5,137.5,137.5,9,97.5,107.5,-115.0,107.5,245.0,135.0,145.0,155.0,155.0,400.0,14/M-O-U/66/PL,0.0,14,452.66,,,,,,,
A,Jake Walker,LEEDS,U23,63.10,66,13,,,,120.0,127.5,-132.5,127.5,6,-90.0,90.0,-95.0,90.0,217.5,160.0,170.0,175.0,175.0,392.5,15/M-O-U/66/PL,0.0,15,449.16,,,,,,,
A,Ifty Hossain,KENT,U23,66.00,66,6,,,,120.0,125.0,130.0,130.0,9,102.5,107.5,-110.0,107.5,237.5,130.0,137.5,142.5,142.5,380.0,16/M-O-U/66/PL,0.0,16,415.89,,,,,,,
A,Phay Thi,UCL,U23,64.20,66,8,,,,125.0,132.5,-140.0,132.5,7,67.5,75.0,82.5,82.5,215.0,160.0,-170.0,-170.0,160.0,375.0,17/M-O-U/66/PL,0.0,17,419.05,,,,,,,
A,Probir Debnath,QMUL,U23,63.50,66,5,,,,125.0,132.5,140.0,140.0,7,75.0,80.0,-82.5,80.0,220.0,145.0,150.0,-155.0,150.0,370.0,18/M-O-U/66/PL,0.0,18,416.26,,,,,,,
A,Sam Drury,EXR,U23,63.80,66,10,,,,110.0,115.0,120.0,120.0,9,75.0,80.0,82.5,82.5,202.5,127.5,137.5,142.5,142.5,345.0,19/M-O-U/66/PL,0.0,19,380.81,,,,,,,
A,Shay Ward,BIRM,U23,65.00,66,9,,,,115.0,-120.0,120.0,120.0,7,75.0,-80.0,80.0,80.0,200.0,125.0,132.5,140.0,140.0,340.0,20/M-O-U/66/PL,0.0,20,368.01,,,,,,,
A,Glenn Hay,DUR,Senior,63.70,66,7,,,,102.5,110.0,-115.0,110.0,10,77.5,-82.5,-85.0,77.5,187.5,135.0,145.0,150.0,150.0,337.5,21/M-O-U/66/PL,0.0,21,371.20,,,,,,,
A,Chistopher Leung,WARK,U23,66.00,66,11,,,,110.0,112.5,117.5,117.5,8,60.0,65.0,-70.0,65.0,182.5,127.5,140.0,145.0,145.0,327.5,22/M-O-U/66/PL,0.0,22,346.70,,,,,,,
A,Balveer Boodoo,QMUL,U23,62.00,66,4,,,,100.0,105.0,110.0,110.0,8,75.0,77.5,-80.0,77.5,187.5,125.0,-130.0,130.0,130.0,317.5,23/M-O-U/66/PL,0.0,23,352.66,,,,,,,
C,Raghul Parthipan,CAM,U23,72.90,74,27,,,,190.0,200.0,207.5,207.5,,130.0,137.5,142.5,142.5,350.0,200.0,215.0,227.5,227.5,577.5,1/M-O-U/74/PL,577.5,1,626.65,,,,,,,
C,Nate Shaw,SUX,Senior,72.60,74,20,,,,200.0,210.0,-217.5,210.0,,115.0,122.5,125.0,125.0,335.0,227.5,240.0,-250.0,240.0,575.0,2/M-O-U/74/PL,575.0,2,625.49,,,,,,,
C,Angus Coyne-Grell,CAM,U23,73.10,74,32,,,,172.5,185.0,195.0,195.0,,115.0,120.0,125.0,125.0,320.0,220.0,237.5,247.5,247.5,567.5,3/M-O-U/74/PL,567.5,3,613.08,,,,,,,
C,Krishan Mistry,ICL,U23,68.80,74,4,,,,200.0,210.0,-220.0,210.0,,125.0,-130.0,-130.0,125.0,335.0,220.0,230.0,-237.5,230.0,565.0,4/M-O-U/74/PL,565.0,4,638.67,,,,,,,
C,William Reid,BIRM,U23,73.00,74,28,,,,182.5,-187.5,-187.5,182.5,,132.5,135.0,137.5,137.5,320.0,-225.0,-225.0,225.0,225.0,545.0,5/M-O-U/74/PL,545.0,5,586.00,,,,,,,
C,Gabriel Tan,DUR,Senior,72.20,74,17,,,,205.0,-217.5,-222.5,205.0,,-110.0,112.5,-115.0,112.5,317.5,225.0,-240.0,-260.0,225.0,542.5,6/M-O-U/74/PL,542.5,6,587.77,,,,,,,
C,Ollie Walker,WARK,U23,73.70,74,36,,,,165.0,-175.0,175.0,175.0,,132.5,137.5,-140.0,137.5,312.5,215.0,225.0,230.0,230.0,542.5,7/M-O-U/74/PL,542.5,7,578.78,,,,,,,
C,Max Guo,LEEDS,U23,72.70,74,24,,,,187.5,-200.0,-200.0,187.5,,-127.5,127.5,135.0,135.0,322.5,205.0,217.5,-227.5,217.5,540.0,,540.0,8,581.64,,,,,,,
C,J-Ren Ong,QMUL,Senior,71.90,74,32,,,,180.0,190.0,195.0,195.0,7,110.0,-117.5,117.5,117.5,312.5,205.0,215.0,225.0,225.0,537.5,,0.0,9,583.41,,,,,,,
C,Ammar Farook,DEM,U23,73.10,74,31,,,,165.0,180.0,187.5,187.5,7,112.5,122.5,130.0,130.0,317.5,197.5,210.0,217.5,217.5,535.0,,0.0,10,573.11,,,,,,,
C,Mete Cheung,BIRM,U23,72.70,74,23,,,,185.0,192.5,200.0,200.0,,105.0,112.5,-117.5,112.5,312.5,210.0,220.0,-227.5,220.0,532.5,,532.5,11,572.39,,,,,,,
B,John Bermudez,BIRM,U23,72.40,74,19,,,,170.0,185.0,-190.0,185.0,,120.0,125.0,130.0,130.0,315.0,200.0,215.0,-225.0,215.0,530.0,,515.0,12,571.08,,,,,,,
C,Cyrus Khine,NOTT,U23,70.20,74,7,,,,-185.0,185.0,195.0,195.0,,105.0,110.0,112.5,112.5,307.5,-210.0,210.0,220.0,220.0,527.5,,527.5,13,581.51,,,,,,,
C,James Bannon,ICL,U23,73.10,74,31,,,,-172.5,-172.5,180.0,180.0,,120.0,125.0,-127.5,125.0,305.0,210.0,220.0,-230.0,220.0,525.0,,525.0,14,560.81,,,,,,,
C,Andrew Callaway,NEW,Senior,73.30,74,35,,,,175.0,185.0,192.5,192.5,,102.5,107.5,-112.5,107.5,300.0,205.0,215.0,225.0,225.0,525.0,,525.0,15,559.66,,,,,,,
B,Syazwan Zulkofli,KENT,U23,71.20,74,9,,,,-167.5,167.5,180.0,180.0,,100.0,105.0,107.5,107.5,287.5,205.0,215.0,225.0,225.0,512.5,,500.0,16,556.47,,,,,,,
B,Ade Omisakin,SHEFF,U23,71.60,74,13,,,,-165.0,165.0,180.0,180.0,,102.5,110.0,112.5,112.5,292.5,190.0,210.0,220.0,220.0,512.5,,497.5,17,554.09,,,,,,,
B,Alex Waddell,EXR,U23,69.90,74,6,,,,170.0,180.0,-187.5,180.0,,105.0,112.5,115.0,115.0,295.0,195.0,207.5,212.5,212.5,507.5,,497.5,18,558.09,,,,,,,
B,Nathan Gevao,NOTT,U23,72.20,74,16,,,,192.5,-200.0,-200.0,192.5,,97.5,102.5,-105.0,102.5,295.0,200.0,207.5,-212.5,207.5,502.5,,502.5,19,538.18,,,,,,,
B,Huw Neville,SOTON,U23,73.50,74,28,,,,150.0,160.0,167.5,167.5,8,120.0,127.5,130.0,130.0,297.5,180.0,192.5,202.5,202.5,500.0,,0.0,20,527.88,,,,,,,
B,Ciaran Harpere,EXR,U23,71.30,74,10,,,,155.0,165.0,175.0,175.0,,105.0,112.5,120.0,120.0,295.0,190.0,202.5,-210.0,202.5,497.5,,482.5,21,537.12,,,,,,,
B,William Stride,NOTT,U23,72.70,74,22,,,,165.0,172.5,-180.0,172.5,,107.5,112.5,115.0,115.0,287.5,195.0,210.0,-217.5,210.0,497.5,,490.0,22,529.19,,,,,,,
B,Jeremy Bieman,BIRM,Senior,72.90,74,26,,,,180.0,185.0,190.0,190.0,,110.0,115.0,-120.0,115.0,305.0,-170.0,180.0,190.0,190.0,495.0,,485.0,23,525.00,,,,,,,
C,Jordan Constable,NOTT,U23,74.00,74,39,,,,160.0,165.0,-170.0,165.0,,-120.0,-120.0,120.0,120.0,285.0,190.0,205.0,-210.0,205.0,490.0,,490.0,24,512.98,,,,,,,
B,Jerico Nepomuceno,NOTT,U23,71.50,74,12,,,,165.0,177.5,-185.0,177.5,,97.5,-102.5,-102.5,97.5,275.0,190.0,202.5,210.0,210.0,485.0,,472.5,25,520.36,,,,,,,
B,Hanjun Hwangbo,LBORO,U23,70.70,74,27,,,,170.0,-180.0,180.0,180.0,7,90.0,95.0,-100.0,95.0,275.0,180.0,190.0,195.0,195.0,470.0,,0.0,26,506.05,,,,,,,
,Riccardo Mazzeo,SHEFF,U23,71.10,74,44,,,,140.0,155.0,165.0,165.0,,-90.0,95.0,100.0,100.0,265.0,175.0,190.0,205.0,205.0,470.0,,332.5,27,503.83,,,,,,,
A,Min Tze Russell Huang,UCL,U23,72.10,74,15,,,,162.5,172.5,-180.0,172.5,,97.5,102.5,-105.0,102.5,275.0,180.0,190.0,-202.5,190.0,465.0,,477.5,28,492.21,,,,,,,
B,Kai Collins,NOTT,U23,73.20,74,33,,,,-160.0,160.0,-172.5,160.0,,110.0,117.5,-120.0,117.5,277.5,170.0,180.0,185.0,185.0,462.5,,462.5,29,483.43,,,,,,,
A,Luke Cheng,LINC,U23,70.50,74,8,,,,142.5,155.0,160.0,160.0,7,87.5,95.0,97.5,97.5,257.5,177.5,192.5,202.5,202.5,460.0,,460.0,30,494.58,,,,,,,
A,Scott Devlin,SOTON,U23,72.40,74,18,,,,150.0,160.0,-170.0,160.0,,120.0,-127.5,127.5,127.5,287.5,155.0,165.0,172.5,172.5,460.0,,460.0,31,484.45,,,,,,,
B,Michael Li,UCL,U23,67.80,74,3,,,,140.0,147.5,155.0,155.0,,105.0,110.0,115.0,115.0,270.0,-170.0,175.0,185.0,185.0,455.0,,455.0,32,503.66,,,,,,,
A,Naeemur Rahman,NOTT,U23,73.10,74,30,,,,165.0,172.5,-180.0,172.5,,90.0,-95.0,-95.0,90.0,262.5,-192.5,192.5,-205.0,192.5,455.0,,447.5,33,474.72,,,,,,,
B,Yaron Bernstein,CAM,U23,71.50,74,11,,,,140.0,150.0,157.5,157.5,,97.5,105.0,110.0,110.0,267.5,170.0,-177.5,182.5,182.5,450.0,,447.5,34,476.69,,,,,,,
A,Terence Yeung,UCL,U23,72.80,74,25,,,,145.0,-150.0,150.0,150.0,,95.0,100.0,-102.5,100.0,250.0,180.0,190.0,200.0,200.0,450.0,,450.0,35,470.06,,,,,,,
A,Shashank Ravikumar,UEA,U23,73.80,74,30,,,,150.0,152.5,165.0,165.0,7,87.5,-95.0,-95.0,87.5,252.5,165.0,182.5,197.5,197.5,450.0,,0.0,36,465.14,,,,,,,
A,William To,UCL,U23,72.70,74,21,,,,147.5,152.5,155.0,155.0,,107.5,112.5,117.5,117.5,272.5,150.0,160.0,170.0,170.0,442.5,,442.5,37,461.30,,,,,,,
B,Venet Kukran,UCL,U23,71.20,74,29,,,,120.0,127.5,135.0,135.0,11,95.0,100.0,-105.0,100.0,235.0,180.0,190.0,200.0,200.0,435.0,,0.0,38,459.48,,,,,,,
B,Patrick Black,NEW,Senior,73.80,74,37,,,,120.0,130.0,-140.0,130.0,,80.0,85.0,90.0,90.0,220.0,185.0,200.0,215.0,215.0,435.0,,425.0,39,446.81,,,,,,,
C,Sean Jun Kyle Saw,WARK,U23,66.80,74,45,,,,-142.5,145.0,150.0,150.0,,107.5,112.5,-117.5,112.5,262.5,160.0,167.5,170.0,170.0,432.5,,0.0,40,480.32,,,,,,,
A,Diptarko Chowdhury,OXF,U23,67.10,74,2,,,,130.0,0.0,0.0,130.0,,105.0,110.0,112.5,112.5,242.5,180.0,190.0,-200.0,190.0,432.5,,432.5,41,478.57,,,,,,,
A,Hywel Roden,SOL,U23,73.30,74,34,,,,142.5,150.0,155.0,155.0,,105.0,110.0,115.0,115.0,270.0,150.0,160.0,-170.0,160.0,430.0,,430.0,42,443.03,,,,,,,
C,William Sewell,WARK,U23,72.10,74,36,,,,137.5,140.0,150.0,150.0,7,-100.0,100.0,-105.0,100.0,250.0,150.0,160.0,-170.0,160.0,410.0,,0.0,43,423.95,,,,,,,
C,Keanu Been,KENT,U23,72.90,74,46,,,,-125.0,125.0,132.5,132.5,11,85.0,92.5,100.0,100.0,232.5,170.0,177.5,-182.5,177.5,410.0,,0.0,44,420.28,,,,,,,
B,Shabab Rahman,QMUL,U23,72.60,74,25,,,,115.0,125.0,-135.0,125.0,10,75.0,-82.5,82.5,82.5,207.5,170.0,180.0,192.5,192.5,400.0,,0.0,45,409.29,,,,,,,
A,Matthew Read,WARK,U23,71.80,74,14,,,,135.0,145.0,155.0,155.0,7,72.5,-77.5,-80.0,72.5,227.5,155.0,165.0,170.0,170.0,397.5,,397.5,46,409.80,,,,,,,
A,Varun Mathur,UCL,U23,69.70,74,5,,,,115.0,120.0,122.5,122.5,10,90.0,95.0,97.5,97.5,220.0,150.0,160.0,170.0,170.0,390.0,,390.0,47,410.17,,,,,,,
C,Christian Dalby,KENT,U23,71.80,74,41,,,,107.5,115.0,127.5,127.5,9,70.0,77.5,85.0,85.0,212.5,150.0,160.0,170.0,170.0,382.5,,0.0,48,391.13,,,,,,,
C,Amman Alvi,BIRM,U23,70.80,74,42,,,,130.0,140.0,145.0,145.0,8,70.0,-75.0,-75.0,70.0,215.0,155.0,165.0,-175.0,165.0,380.0,,0.0,49,392.44,,,,,,,
C,Ahmad Sidawi,BATH,Senior,72.10,74,35,,,,100.0,-115.0,-120.0,100.0,7,90.0,100.0,105.0,105.0,205.0,150.0,165.0,175.0,175.0,380.0,,0.0,50,386.72,,,,,,,
C,Mohammad Awwami,CAM,U23,70.60,74,37,,,,120.0,125.0,130.0,130.0,7,70.0,77.5,80.0,80.0,210.0,140.0,150.0,160.0,160.0,370.0,,0.0,51,380.76,,,,,,,
C,Mustafa Karimjee,BRN,U23,72.60,74,40,,,,125.0,132.5,140.0,140.0,8,67.5,72.5,77.5,77.5,217.5,145.0,-152.5,152.5,152.5,370.0,,0.0,52,372.23,,,,,,,
C,Samuel Davey,NOTT,U23,71.30,74,43,,,,115.0,125.0,130.0,130.0,,90.0,95.0,100.0,100.0,230.0,135.0,-145.0,,135.0,365.0,,0.0,53,371.46,,,,,,,
C,Saifullah Cepalovic,BRN,U23,72.90,74,38,,,,120.0,127.5,132.5,132.5,9,77.5,82.5,87.5,87.5,220.0,145.0,-152.5,-152.5,145.0,365.0,,0.0,54,364.84,,,,,,,
C,Fionnian Orrey,BGR,U23,73.80,74,39,,,,-105.0,-105.0,105.0,105.0,12,70.0,-80.0,80.0,80.0,185.0,-160.0,-160.0,-160.0,0.0,0.0,,0.0,,0.00,,,,,,,
C,Goffy So,QMUL,U23,72.30,74,33,,,,-175.0,-175.0,-175.0,0.0,9,110.0,117.5,-125.0,117.5,0.0,-175.0,,,0.0,0.0,,0.0,,0.00,,,,,,,
C,Nirujan Shanmugavadivei,QMUL,U23,73.90,74,38,,,,-195.0,-200.0,-200.0,0.0,,-95.0,0.0,0.0,0.0,0.0,-232.5,-232.5,0.0,0.0,0.0,,0.0,,0.00,,,,,,,
A,Oliver Milne,BGR,U23,73.10,74,29,,,,-170.0,-170.0,-170.0,0.0,10,90.0,-92.5,0.0,90.0,0.0,0.0,0.0,0.0,0.0,0.0,,0.0,,0.00,,,,,,,
B,Salman Khan,CAM,Senior,82.40,83,9,,,,220.0,240.0,250.0,250.0,8,155.0,160.0,165.0,165.0,415.0,280.0,300.0,305.5,305.5,720.5,1/M-O-U/83/PL,720.5,1,736.92,,,,,,,
B,Francis Ojemere,LEST,U23,81.70,83,16,,,,235.0,247.5,255.0,255.0,13,125.0,132.5,135.0,135.0,390.0,275.0,290.0,-295.0,290.0,680.0,2/M-O-U/83/PL,680.0,2,694.76,,,,,,,
B,Aymen Alhassan,EXR,U23,81.00,83,16,,,,205.0,212.5,220.0,220.0,6,150.0,157.5,162.5,162.5,382.5,-285.0,285.0,-301.0,285.0,667.5,3/M-O-U/83/PL,667.5,3,684.46,,,,,,,
B,Matthieu Chan,LBORO,U23,82.20,83,20,,,,227.5,-235.0,242.5,242.5,8,132.5,140.0,-142.5,140.0,382.5,275.0,285.0,-295.0,285.0,667.5,4/M-O-U/83/PL,667.5,4,677.60,,,,,,,
B,Tom Hutchinson,NOR,U23,82.60,83,10,,,,210.0,220.0,227.5,227.5,7,130.0,137.5,142.5,142.5,370.0,255.0,267.5,275.0,275.0,645.0,5/M-O-U/83/PL,645.0,5,649.73,,,,,,,
B,Ebenezer Koya,NEW,U23,80.40,83,22,,,,215.0,225.0,235.0,235.0,8,137.5,145.0,152.5,152.5,387.5,235.0,252.5,-265.0,252.5,640.0,6/M-O-U/83/PL,640.0,6,656.14,,,,,,,
B,Hugo Beaumont,EXR,U23,81.90,83,18,,,,202.5,212.5,-220.0,212.5,7,142.5,150.0,152.5,152.5,365.0,247.5,260.0,272.5,272.5,637.5,7/M-O-U/83/PL,637.5,7,644.95,,,,,,,
B,Badrun Ali,QMUL,U23,81.90,83,17,,,,207.5,215.0,-220.0,215.0,9,150.0,157.5,162.5,162.5,377.5,227.5,237.5,245.0,245.0,622.5,8/M-O-U/83/PL,622.5,8,627.78,,,,,,,
B,Hud Syafig Herman,ICL,U23,80.30,83,14,,,,205.0,-212.5,212.5,212.5,8,145.0,152.5,-160.0,152.5,365.0,250.0,-262.5,-262.5,250.0,615.0,9/M-O-U/83/PL,615.0,9,627.75,,,,,,,
B,Xiu Sheng Kevin Tan,CAM,Senior,79.80,83,12,,,,195.0,205.0,210.0,210.0,10,125.0,132.5,-140.0,132.5,342.5,242.5,255.0,267.5,267.5,610.0,10/M-O-U/83/PL,610.0,10,624.68,,,,,,,
B,Gregory Winwood,BIRM,U23,81.80,83,15,,,,210.0,230.0,-240.0,230.0,,115.0,125.0,130.0,130.0,360.0,210.0,235.0,-255.0,235.0,595.0,11/M-O-U/83/PL,595.0,11,596.81,,,,,,,
A,Hamza Bham,EXR,U23,80.70,83,7,,,,185.0,195.0,205.0,205.0,,135.0,145.0,147.5,147.5,352.5,227.5,240.0,-247.5,240.0,592.5,1/M-O-U/83/PL,592.5,12,599.58,,,,,,,
B,Mahin Zafar,NOTT,U23,82.00,83,19,,,,210.0,-225.0,-225.0,210.0,6,122.5,127.5,130.0,130.0,340.0,240.0,252.5,-265.0,252.5,592.5,12/M-O-U/83/PL,592.5,13,592.94,,,,,,,
B,Joe Feeney,LINC,U23,82.40,83,8,,,,220.0,230.0,-232.5,230.0,7,142.5,-147.5,-147.5,142.5,372.5,220.0,-240.0,-240.0,220.0,592.5,13/M-O-U/83/PL,592.5,14,590.94,,,,,,,
B,Dean Patient,EXR,Senior,81.30,83,16,,,,202.5,212.5,-222.5,212.5,8,132.5,137.5,140.0,140.0,352.5,212.5,227.5,235.0,235.0,587.5,1/M-O-U/83/PL,587.5,15,590.74,,,,,,,
A,Zechi Gan,WARK,U23,81.90,83,16,,,,-192.5,-192.5,192.5,192.5,,115.0,122.5,127.5,127.5,320.0,235.0,247.5,255.0,255.0,575.0,14/M-O-U/83/PL,575.0,16,573.41,,,,,,,
B,Adam Madelin,NOTT,U23,82.10,83,22,,,,185.0,192.5,200.0,200.0,,135.0,140.0,-145.0,140.0,340.0,220.0,230.0,-240.0,230.0,570.0,570,0.0,17,566.72,,,,,,,
A,Wen Hii,LBORO,U23,80.00,83,13,,,,190.0,200.0,207.5,207.5,,107.5,112.5,117.5,117.5,325.0,230.0,242.5,-250.0,242.5,567.5,15/M-O-U/83/PL,567.5,18,574.23,,,,,,,
A,Ibrahim Dridi,NOTT,U23,81.20,83,17,,,,-190.0,190.0,205.0,205.0,,105.0,115.0,-120.0,115.0,320.0,230.0,242.5,-252.5,242.5,562.5,16/M-O-U/83/PL,562.5,19,562.48,,,,,,,
A,Gareth Wong,KCL,U23,82.00,83,5,,,,185.0,195.0,205.0,205.0,,117.5,125.0,-132.5,125.0,330.0,210.0,220.0,232.5,232.5,562.5,2/M-O-U/83/PL,562.5,20,558.62,,,,,,,
B,Rob Salvesen,LBORO,U23,80.20,83,21,,,,190.0,200.0,205.0,205.0,,115.0,-122.5,122.5,122.5,327.5,225.0,-240.0,-245.0,225.0,552.5,3/M-O-U/83/PL,552.5,21,555.82,,,,,,,
B,Alexander Dommett,KENT,U23,81.30,83,18,,,,182.5,190.0,200.0,200.0,,117.5,-122.5,-122.5,117.5,317.5,225.0,-230.0,-230.0,225.0,542.5,17/M-O-U/83/PL,542.5,22,538.99,,,,,,,
A,Nicholas Burden,OXF,U23,81.40,83,22,,,,-170.0,-170.0,170.0,170.0,,127.5,132.5,137.5,137.5,307.5,215.0,227.5,235.0,235.0,542.5,4/M-O-U/83/PL,542.5,23,538.53,,,,,,,
A,Jiancong Guo,LBORO,U23,80.70,83,11,,,,162.5,172.5,177.5,177.5,,115.0,122.5,-127.5,122.5,300.0,225.0,237.5,-245.0,237.5,537.5,5/M-O-U/83/PL,537.5,24,536.05,,,,,,,
B,Christopher Clarke,NEW,U23,78.40,83,2,,,,175.0,185.0,-192.5,185.0,,107.5,112.5,117.5,117.5,302.5,215.0,-227.5,232.5,232.5,535.0,18/M-O-U/83/PL,535.0,25,544.33,,,,,,,
B,Harry Latos,LBORO,U23,78.60,83,24,,,,160.0,170.0,180.0,180.0,,125.0,130.0,135.0,135.0,315.0,195.0,210.0,220.0,220.0,535.0,535,0.0,26,543.33,,,,,,,
B,Alessandro Jeremaes,EXR,U23,78.70,83,11,,,,160.0,170.0,180.0,180.0,10,130.0,140.0,-147.5,140.0,320.0,200.0,212.5,-217.5,212.5,532.5,2/M-O-U/83/PL,532.5,27,539.90,,,,,,,
A,Valerio Zito,UCL,U23,78.70,83,3,,,,190.0,-195.0,-195.0,190.0,,112.5,-120.0,-120.0,112.5,302.5,220.0,230.0,-245.0,230.0,532.5,19/M-O-U/83/PL,532.5,28,539.90,,,,,,,
A,Kevin Liew,DUR,Senior,78.40,83,1,,,,180.0,190.0,-197.5,190.0,,115.0,120.0,-125.0,120.0,310.0,210.0,220.0,-227.5,220.0,530.0,20/M-O-U/83/PL,530.0,29,538.45,,,,,,,
A,Patrick Burgess,SOTON,U23,78.60,83,10,,,,170.0,180.0,185.0,185.0,,110.0,117.5,-122.5,117.5,302.5,200.0,212.5,222.5,222.5,525.0,6/M-O-U/83/PL,525.0,30,531.59,,,,,,,
A,Luke Smith,ICL,U23,78.80,83,4,,,,-150.0,-150.0,150.0,150.0,,125.0,130.0,0.0,130.0,280.0,232.5,245.0,-257.5,245.0,525.0,21/M-O-U/83/PL,525.0,31,530.61,,,,,,,
A,Jack Beazley,LEEDS,U23,80.70,83,15,,,,182.5,190.0,-197.5,190.0,8,112.5,-117.5,120.0,120.0,310.0,195.0,207.5,215.0,215.0,525.0,22/M-O-U/83/PL,525.0,32,521.62,,,,,,,
B,Akash Sengupta,CAM,U23,82.00,83,20,,,,165.0,177.5,190.0,190.0,,100.0,105.0,110.0,110.0,300.0,195.0,210.0,222.5,222.5,522.5,7/M-O-U/83/PL,522.5,33,512.87,,,,,,,
A,Karim Faerahat,ICL,U23,82.30,83,21,,,,195.0,205.0,-210.0,205.0,,110.0,115.0,120.0,120.0,325.0,190.0,192.5,197.5,197.5,522.5,23/M-O-U/83/PL,522.5,34,511.54,,,,,,,
B,Raihan Mohammed,CAM,Senior,79.30,83,17,,,,170.0,180.0,190.0,190.0,,-115.0,115.0,,115.0,305.0,205.0,215.0,-227.5,215.0,520.0,8/M-O-U/83/PL,520.0,35,522.36,,,,,,,
B,Jack Lynch,EXR,U23,80.90,83,15,,,,180.0,190.0,195.0,195.0,9,107.5,112.5,-117.5,112.5,307.5,-210.0,210.0,-217.5,210.0,517.5,3/M-O-U/83/PL,517.5,36,512.05,,,,,,,
A,Harry Beadle,WARK,U23,82.40,83,7,,,,-190.0,200.0,-205.0,200.0,,-110.0,112.5,120.0,120.0,320.0,-180.0,190.0,-200.0,190.0,510.0,24/M-O-U/83/PL,510.0,37,496.85,,,,,,,
B,Mohammed Rahman,BRN,U23,79.20,83,5,,,,175.0,-192.5,-195.0,175.0,,-100.0,100.0,107.5,107.5,282.5,225.0,-232.5,-232.5,225.0,507.5,25/M-O-U/83/PL,507.5,38,508.23,,,,,,,
A,Benjamin Walsh,EXR,U23,81.40,83,17,,,,175.0,182.5,-190.0,182.5,10,100.0,105.0,-110.0,105.0,287.5,220.0,-227.5,-227.5,220.0,507.5,4/M-O-U/83/PL,507.5,39,498.31,,,,,,,
B,Thomas Stockill,LINC,U23,80.90,83,20,,,,155.0,165.0,175.0,175.0,,110.0,120.0,125.0,125.0,300.0,180.0,195.0,205.0,205.0,505.0,505,0.0,40,497.63,,,,,,,
A,Nick Lonnquist,WARK,Senior,78.10,83,3,,,,-180.0,180.0,-190.0,180.0,,117.5,125.0,127.5,127.5,307.5,180.0,195.0,-205.0,195.0,502.5,26/M-O-U/83/PL,502.5,41,507.53,,,,,,,
A,Hugo Loydell,UCL,U23,76.70,83,9,,,,170.0,177.5,-185.0,177.5,,120.0,125.0,130.0,130.0,307.5,172.5,182.5,192.5,192.5,500.0,9/M-O-U/83/PL,500.0,42,511.34,,,,,,,
A,Andrew Penny,YORK,U23,79.00,83,4,,,,157.5,170.0,180.0,180.0,,107.5,117.5,120.0,120.0,300.0,175.0,190.0,200.0,200.0,500.0,500,0.0,43,500.38,,,,,,,
B,Max Schemuth,DUR,U23,79.40,83,11,,,,-170.0,170.0,-180.0,170.0,,112.5,120.0,-125.0,120.0,290.0,200.0,210.0,-215.0,210.0,500.0,27/M-O-U/83/PL,500.0,45,498.55,,,,,,,
A,James Cullen,BRN,U23,80.80,83,14,,,,160.0,-170.0,175.0,175.0,11,-112.5,112.5,125.0,125.0,300.0,182.5,192.5,200.0,200.0,500.0,5/M-O-U/83/PL,500.0,44,492.30,,,,,,,
B,Zhong Hui Lim,OXF,Senior,74.20,83,19,,,,155.0,162.5,170.0,170.0,,112.5,120.0,125.0,125.0,295.0,180.0,190.0,197.5,197.5,492.5,10/M-O-U/83/PL,492.5,46,514.98,,,,,,,
B,Joseph Shaw,UEA,U23,80.70,83,13,,,,165.0,-170.0,-170.0,165.0,8,100.0,-107.5,-107.5,100.0,265.0,190.0,210.0,227.5,227.5,492.5,6/M-O-U/83/PL,492.5,48,484.08,,,,,,,
B,Samuel Hill,LEEDS,U23,81.10,83,23,,,,170.0,-177.5,177.5,177.5,,-115.0,115.0,-120.0,115.0,292.5,190.0,200.0,-205.0,200.0,492.5,492.5,0.0,47,482.36,,,,,,,
B,Ben Jones,CAM,U23,81.20,83,19,,,,170.0,182.5,192.5,192.5,,85.0,90.0,-92.5,90.0,282.5,180.0,-197.5,207.5,207.5,490.0,490,0.0,49,479.05,,,,,,,
A,Raphael Leong,UCL,U23,76.20,83,4,,,,162.5,-172.5,175.0,175.0,,-102.5,102.5,107.5,107.5,282.5,-205.0,205.0,-222.5,205.0,487.5,11/M-O-U/83/PL,487.5,50,498.85,,,,,,,
B,Elvis Lee,ICL,U23,80.20,83,12,,,,175.0,185.0,-195.0,185.0,8,115.0,127.5,-132.5,127.5,312.5,170.0,175.0,0.0,175.0,487.5,7/M-O-U/83/PL,487.5,51,480.46,,,,,,,
B,Nicholas Liebl,BGR,Senior,81.60,83,18,,,,150.0,155.0,-170.0,155.0,9,-140.0,140.0,-145.0,140.0,295.0,190.0,-200.0,-200.0,190.0,485.0,8/M-O-U/83/PL,485.0,52,471.63,,,,,,,
B,Tyler Thomson,EXR,U23,80.80,83,14,,,,150.0,157.5,-162.5,157.5,,112.5,117.5,122.5,122.5,280.0,180.0,190.0,200.0,200.0,480.0,480,0.0,53,469.22,,,,,,,
A,Nicholas Green,SURR,U23,82.00,83,1,,,,150.0,-160.0,162.5,162.5,,90.0,95.0,100.0,100.0,262.5,195.0,210.0,217.5,217.5,480.0,9/M-O-U/83/PL,480.0,54,464.25,,,,,,,
A,Noah Stuckey,LBORO,U23,82.10,83,2,,,,172.5,180.0,-187.5,180.0,6,110.0,-117.5,-117.5,110.0,290.0,-187.5,-187.5,187.5,187.5,477.5,10/M-O-U/83/PL,477.5,55,460.99,,,,,,,
B,Hamish Hallett,KENT,U23,75.20,83,3,,,,160.0,170.0,-177.5,170.0,9,110.0,-117.5,117.5,117.5,287.5,170.0,182.5,187.5,187.5,475.0,11/M-O-U/83/PL,475.0,56,488.70,,,,,,,
A,James Pallett,EXR,U23,78.00,83,4,,,,150.0,155.0,160.0,160.0,9,105.0,110.0,115.0,115.0,275.0,180.0,190.0,200.0,200.0,475.0,12/M-O-U/83/PL,475.0,57,475.56,,,,,,,
A,Hasan Ahmad,QMUL,U23,80.60,83,24,,,,160.0,167.5,-175.0,167.5,,90.0,95.0,100.0,100.0,267.5,180.0,195.0,207.5,207.5,475.0,12/M-O-U/83/PL,475.0,58,464.28,,,,,,,
A,Omar Ali,ASTON,U23,82.00,83,1,,,,167.5,-172.5,175.0,175.0,,100.0,107.5,-112.5,107.5,282.5,180.0,192.5,-200.0,192.5,475.0,13/M-O-U/83/PL,475.0,59,458.54,,,,,,,
B,Aldair Petronillia,WARK,U23,80.70,83,3,,,,150.0,157.5,-162.5,157.5,,-100.0,100.0,-105.0,100.0,257.5,200.0,215.0,-222.5,215.0,472.5,472.5,0.0,60,460.97,,,,,,,
A,James Smith,WARK,U23,81.00,83,8,,,,167.5,172.5,-180.0,172.5,,87.5,95.0,-100.0,95.0,267.5,190.0,205.0,-215.0,205.0,472.5,13/M-O-U/83/PL,472.5,61,459.74,,,,,,,
A,Conor Flaherty,DEM,Senior,81.30,83,15,,,,-170.0,175.0,180.0,180.0,,90.0,95.0,102.5,102.5,282.5,190.0,-210.0,-215.0,190.0,472.5,14/M-O-U/83/PL,472.5,62,458.51,,,,,,,
B,Syed Saad Naveed,SUX,Senior,82.10,83,14,,,,155.0,160.0,,160.0,,95.0,-100.0,-100.0,95.0,255.0,205.0,215.0,-227.5,215.0,470.0,15/M-O-U/83/PL,470.0,63,452.42,,,,,,,
B,Alexander Jackson,WARK,U23,78.10,83,10,,,,155.0,162.5,-170.0,162.5,9,110.0,117.5,-120.0,117.5,280.0,182.5,187.5,-190.0,187.5,467.5,14/M-O-U/83/PL,467.5,64,466.27,,,,,,,
A,Christopher Fear,WARK,U23,80.70,83,6,,,,150.0,165.0,-167.5,165.0,8,95.0,100.0,-105.0,100.0,265.0,190.0,200.0,202.5,202.5,467.5,15/M-O-U/83/PL,467.5,65,455.20,,,,,,,
A,Josh New,NOTT,U23,80.00,83,5,,,,145.0,152.5,-157.5,152.5,9,107.5,115.0,117.5,117.5,270.0,180.0,192.5,-195.0,192.5,462.5,16/M-O-U/83/PL,462.5,66,452.29,,,,,,,
A,Liam Parnis,WARK,U23,80.80,83,7,,,,-160.0,165.0,-180.0,165.0,10,-95.0,102.5,107.5,107.5,272.5,170.0,180.0,190.0,190.0,462.5,17/M-O-U/83/PL,462.5,67,449.02,,,,,,,
A,Robert Naylor,UCL,U23,81.40,83,9,,,,150.0,160.0,-165.0,160.0,10,95.0,100.0,-105.0,100.0,260.0,190.0,202.5,-210.0,202.5,462.5,18/M-O-U/83/PL,462.5,68,446.61,,,,,,,
A,Abdulla Butt,GRN,U23,78.40,83,9,,,,-152.5,152.5,-157.5,152.5,,-112.5,115.0,-117.5,115.0,267.5,192.5,-197.5,-197.5,192.5,460.0,460,0.0,69,456.13,,,,,,,
A,Sean Goulding,,U23,75.10,83,6,,,,142.5,150.0,160.0,160.0,,-100.0,100.0,107.5,107.5,267.5,160.0,-185.0,190.0,190.0,457.5,16/M-O-U/83/PL,457.5,70,468.04,,,,,,,
B,Thomas Hiscock,EXR,U23,81.30,83,21,,,,155.0,-162.5,-162.5,155.0,,95.0,100.0,-102.5,100.0,255.0,190.0,200.0,-207.5,200.0,455.0,455,0.0,71,438.38,,,,,,,
A,Jonathon Forsythe,WARK,U23,79.60,83,2,,,,165.0,-175.0,-175.0,165.0,,95.0,100.0,-105.0,100.0,265.0,175.0,180.0,-185.0,180.0,445.0,445,0.0,72,433.57,,,,,,,
B,Sai Datla,UCL,U23,81.40,83,15,,,,-145.0,150.0,157.5,157.5,,105.0,110.0,117.5,117.5,275.0,150.0,160.0,165.0,165.0,440.0,440,0.0,73,420.76,,,,,,,
B,Mohammad Raquaab Shabbir,BRN,U23,81.80,83,13,,,,137.5,142.5,-147.5,142.5,,92.5,95.0,100.0,100.0,242.5,187.5,197.5,-205.0,197.5,440.0,17/M-O-U/83/PL,440.0,74,419.25,,,,,,,
A,Bradley Richardson,SOTON,U23,81.00,83,3,,,,140.0,150.0,-155.0,150.0,,85.0,90.0,-95.0,90.0,240.0,175.0,185.0,195.0,195.0,435.0,18/M-O-U/83/PL,435.0,75,416.52,,,,,,,
B,Wesley Rawlings,OXF,U23,83.00,83,17,,,,155.0,162.5,-170.0,162.5,,82.5,87.5,90.0,90.0,252.5,160.0,170.0,180.0,180.0,432.5,432.5,0.0,76,406.31,,,,,,,
B,Benjamin Cook,LEEDS,U23,76.50,83,16,,,,-130.0,130.0,140.0,140.0,,95.0,-100.0,-100.0,95.0,235.0,170.0,185.0,195.0,195.0,430.0,19/M-O-U/83/PL,430.0,77,428.72,,,,,,,
B,Matthew Thomas,NOTT,U23,81.80,83,18,,,,-145.0,152.5,-162.5,152.5,,82.5,87.5,-95.0,87.5,240.0,177.5,187.5,-200.0,187.5,427.5,427.5,0.0,78,404.93,,,,,,,
B,Jong Kwon,OXF,U23,74.50,83,10,,,,-137.5,137.5,150.0,150.0,,85.0,90.0,-95.0,90.0,240.0,170.0,180.0,-190.0,180.0,420.0,420,0.0,79,425.35,,,,,,,
B,Tinotenda Machimbidza,SUX,U23,78.70,83,13,,,,-140.0,140.0,-150.0,140.0,,85.0,90.0,95.0,95.0,235.0,160.0,170.0,185.0,185.0,420.0,420,0.0,80,407.92,,,,,,,
A,Peter Hessey,DUR,U23,80.10,83,16,,,,147.5,152.5,160.0,160.0,,85.0,90.0,-97.5,90.0,250.0,160.0,170.0,-175.0,170.0,420.0,420,0.0,81,402.56,,,,,,,
A,Petur Einarsson Nielson,DUR,U23,79.20,83,12,,,,152.5,155.0,165.0,165.0,,77.5,85.0,-95.0,85.0,250.0,152.5,165.0,-175.0,165.0,415.0,20/M-O-U/83/PL,415.0,82,400.14,,,,,,,
A,Stephen Mackie,BIRM,U23,82.30,83,12,,,,-135.0,-135.0,137.5,137.5,,102.5,107.5,,107.5,245.0,145.0,157.5,165.0,165.0,410.0,410,0.0,83,383.15,,,,,,,
B,Ethan Gilbert,SMUL,U23,80.80,83,23,,,,130.0,140.0,-147.5,140.0,,80.0,87.5,-90.0,87.5,227.5,150.0,165.0,175.0,175.0,402.5,21/M-O-U/83/PL,402.5,84,379.77,,,,,,,
A,Saadat Wadud,UCL,U23,76.70,83,2,,,,130.0,135.0,-140.0,135.0,,85.0,90.0,-95.0,90.0,225.0,145.0,152.5,160.0,160.0,385.0,22/M-O-U/83/PL,385.0,85,374.22,,,,,,,
A,Thomas Smith,NOTT,U23,79.30,83,8,,,,127.5,135.0,142.5,142.5,,77.5,-85.0,-85.0,77.5,220.0,152.5,165.0,-180.0,165.0,385.0,385,0.0,86,364.73,,,,,,,
A,Jiwan Gupta,YORK,U23,80.30,83,7,,,,115.0,-122.5,122.5,122.5,,72.5,77.5,-80.0,77.5,200.0,165.0,175.0,182.5,182.5,382.5,382.5,0.0,87,358.37,,,,,,,
A,Andrew Turley,SURR,U23,80.40,83,1,,,,110.0,-117.5,-120.0,110.0,,55.0,60.0,-65.0,60.0,170.0,160.0,170.0,-177.5,170.0,340.0,340,0.0,88,308.83,,,,,,,
A,Zac Amato,BRN,U23,75.80,83,5,,,,100.0,107.5,-115.0,107.5,,57.5,62.5,-65.0,62.5,170.0,120.0,127.5,132.5,132.5,302.5,302.5,0.0,89,278.56,,,,,,,
A,Daniel Howlett,BGR,U23,79.80,83,6,,,,105.0,-107.5,107.5,107.5,,70.0,-72.5,-72.5,70.0,177.5,115.0,125.0,-132.5,125.0,302.5,302.5,0.0,90,267.03,,,,,,,
C,Adedapo Ojewale,KINGS,U23,90.20,93,35,,,,242.5,250.0,-255.0,250.0,11,150.0,155.0,157.5,157.5,407.5,310.0,320.0,323.0,323.0,730.5,1/M-O-U/93/PL,730.5,1,705.02,,,,,,,
C,Ben Pape,DEM,U23,92.30,93,9,,,,242.5,256.0,264.0,264.0,7,145.0,152.5,-155.0,152.5,416.5,272.5,287.5,-312.5,287.5,704.0,2/M-O-U/93/PL,704.0,2,666.44,,,,,,,
C,Sean-Paul MacKenzie,WARK,Senior,91.90,93,8,,,,-242.5,242.5,255.0,255.0,8,137.5,140.0,-142.5,140.0,395.0,275.0,290.0,-300.0,290.0,685.0,3/M-O-U/93/PL,685.0,3,647.97,,,,,,,
C,William Pickering #1,OXF,U23,86.20,93,30,,,,210.0,225.0,232.5,232.5,,152.5,-157.5,157.5,157.5,390.0,250.0,267.5,280.0,280.0,670.0,4/M-O-U/93/PL,670.0,4,659.00,,,,,,,
B,Daniel Clarke,EXR,U23,89.60,93,18,,,,222.5,232.5,240.0,240.0,9,140.0,147.5,-150.0,147.5,387.5,247.5,262.5,270.0,270.0,657.5,5/M-O-U/93/PL,657.5,5,628.84,,,,,,,
C,Benjamin Jenkins,MAN,Senior,91.20,93,5,,,,225.0,240.0,-245.0,240.0,10,135.0,145.0,147.5,147.5,387.5,245.0,262.5,270.0,270.0,657.5,6/M-O-U/93/PL,657.5,6,621.63,,,,,,,
C,Harry Davies,ICL,Senior,88.00,93,31,,,,220.0,235.0,240.0,240.0,9,125.0,135.0,140.0,140.0,380.0,255.0,270.0,275.0,275.0,655.0,7/M-O-U/93/PL,655.0,7,633.59,,,,,,,
C,Luke Cummings,BGR,U23,91.20,93,4,,,,225.0,237.5,245.0,245.0,10,162.5,172.5,-177.5,172.5,417.5,215.0,227.5,237.5,237.5,655.0,8/M-O-U/93/PL,655.0,8,618.94,,,,,,,
C,Jack Lungu,NOTT,U23,90.00,93,28,,,,220.0,230.0,235.0,235.0,,127.5,135.0,140.0,140.0,375.0,260.0,272.5,-280.0,272.5,647.5,9/M-O-U/93/PL,647.5,9,616.18,,,,,,,
B,Elliot Jackson-Smith,NOTT,Senior,91.40,93,23,,,,205.0,217.5,222.5,222.5,,140.0,150.0,-155.0,150.0,372.5,240.0,260.0,-277.5,260.0,632.5,1/M-O-U/93/PL,632.5,10,593.92,,,,,,,
B,Callum Davies-Keogh,NOTT,U23,90.60,93,14,,,,205.0,220.0,-227.5,220.0,11,135.0,145.0,150.0,150.0,370.0,235.0,250.0,260.0,260.0,630.0,10/M-O-U/93/PL,630.0,11,594.64,,,,,,,
C,Charlie Clements,NOTT,U23,90.30,93,26,,,,220.0,230.0,240.0,240.0,8,115.0,125.0,127.5,127.5,367.5,-250.0,-260.0,260.0,260.0,627.5,11/M-O-U/93/PL,627.5,12,593.24,,,,,,,
B,Gary He,CAM,Senior,86.90,93,18,,,,200.0,215.0,-222.5,215.0,,145.0,-150.0,150.0,150.0,365.0,240.0,250.0,260.0,260.0,625.0,2/M-O-U/93/PL,625.0,13,605.75,,,,,,,
B,Thomas Festa Oderinde,LBORO,U23,84.70,93,22,,,,210.0,220.0,230.0,230.0,,115.0,122.5,125.0,125.0,355.0,242.5,257.5,265.0,265.0,620.0,3/M-O-U/93/PL,620.0,14,610.70,,,,,,,
B,Vikram Thakur,CAM,U23,92.60,93,12,,,,210.0,225.0,-235.0,225.0,,127.5,132.5,135.0,135.0,360.0,240.0,260.0,-272.5,260.0,620.0,12/M-O-U/93/PL,620.0,15,575.60,,,,,,,
C,Henry Trunley,CAM,U23,85.70,93,24,,,,190.0,200.0,207.5,207.5,8,150.0,155.0,-157.5,155.0,362.5,225.0,240.0,252.5,252.5,615.0,13/M-O-U/93/PL,615.0,16,600.30,,,,,,,
C,Ollie Chick,BATH,U23,90.90,93,2,,,,180.0,200.0,210.0,210.0,9,-125.0,130.0,-140.0,130.0,340.0,260.0,270.0,-280.0,270.0,610.0,14/M-O-U/93/PL,610.0,17,571.83,,,,,,,
B,Ka Chun Wan,CAM,U23,92.40,93,10,,,,200.0,210.0,220.0,220.0,9,117.5,122.5,127.5,127.5,347.5,232.5,247.5,255.0,255.0,602.5,15/M-O-U/93/PL,602.5,18,557.75,,,,,,,
C,Tom Seldon,SWAN,U23,92.40,93,11,,,,215.0,225.0,-230.0,225.0,,127.5,-135.0,-135.0,127.5,352.5,235.0,242.5,250.0,250.0,602.5,16/M-O-U/93/PL,602.5,19,557.75,,,,,,,
B,Kenny Chieng,NEW,U23,83.10,93,23,,,,205.0,217.5,227.5,227.5,8,110.0,115.0,120.0,120.0,347.5,230.0,245.0,-257.5,245.0,592.5,17/M-O-U/93/PL,592.5,20,587.49,,,,,,,
A,Rhys Connor,CRDF,U23,90.70,93,6,,,,185.0,202.5,207.5,207.5,9,115.0,125.0,130.0,130.0,337.5,220.0,245.0,255.0,255.0,592.5,18/M-O-U/93/PL,592.5,21,553.80,,,,,,,
B,Troy Martin,LBORO,U23,90.10,93,19,,,,170.0,185.0,195.0,195.0,8,-145.0,145.0,150.0,150.0,345.0,232.5,245.0,-250.0,245.0,590.0,19/M-O-U/93/PL,590.0,22,553.53,,,,,,,
B,Callum McHenewry,BRIST,U23,89.70,93,21,,,,185.0,195.0,200.0,200.0,,145.0,150.0,-155.0,150.0,350.0,210.0,225.0,235.0,235.0,585.0,4/M-O-U/93/PL,585.0,23,549.75,,,,,,,
B,Thomas Miller,LBORO,U23,87.80,93,16,,,,180.0,-195.0,200.0,200.0,10,125.0,135.0,-140.0,135.0,335.0,230.0,245.0,-255.0,245.0,580.0,20/M-O-U/93/PL,580.0,24,552.18,,,,,,,
A,Benito Cattani,KENT,U23,88.90,93,5,,,,200.0,212.5,230.0,230.0,10,110.0,117.0,120.0,120.0,350.0,230.0,-240.0,-240.0,230.0,580.0,21/M-O-U/93/PL,580.0,25,547.59,,,,,,,
A,Callum Weir,EXR,U23,89.00,93,7,,,,205.0,217.5,-227.5,217.5,10,95.0,100.0,105.0,105.0,322.5,232.5,242.5,255.0,255.0,577.5,22/M-O-U/93/PL,577.5,26,544.45,,,,,,,
B,Ubayd Ahmed,NOTT,U23,90.30,93,13,,,,207.5,220.0,-225.0,220.0,8,115.0,122.5,-127.5,122.5,342.5,225.0,235.0,-245.0,235.0,577.5,23/M-O-U/93/PL,577.5,27,539.21,,,,,,,
B,Victor Macauley,SHEFF,U23,91.10,93,3,,,,210.0,-220.0,-225.0,210.0,,127.5,-135.0,-135.0,127.5,337.5,240.0,-255.0,-262.5,240.0,577.5,24/M-O-U/93/PL,577.5,28,536.07,,,,,,,
B,Elliot Sutcliffe,EXR,U23,86.70,93,20,,,,202.5,212.5,-220.0,212.5,8,132.5,140.0,142.5,142.5,355.0,220.0,-230.0,-230.0,220.0,575.0,25/M-O-U/93/PL,575.0,29,551.37,,,,,,,
A,George Dimopoulos ,LEEDS,U23,90.50,93,10,,,,180.0,190.0,197.5,197.5,11,125.0,132.5,137.5,137.5,335.0,210.0,225.0,240.0,240.0,575.0,26/M-O-U/93/PL,575.0,30,535.73,,,,,,,
A,Jevan Cockbain,LBORO,U23,84.40,93,4,,,,192.5,205.0,215.0,215.0,,105.0,112.5,-115.0,112.5,327.5,230.0,-245.0,245.0,245.0,572.5,5/M-O-U/93/PL,572.5,31,558.78,,,,,,,
A,Diamor Marke,OXF,U23,84.00,93,11,,,,200.0,210.0,-220.0,210.0,,110.0,120.0,-122.5,120.0,330.0,220.0,230.0,237.5,237.5,567.5,27/M-O-U/93/PL,567.5,32,554.97,,,,,,,
A,Michael Grayston,EXR,U23,89.50,93,3,,,,187.5,197.5,205.0,205.0,8,115.0,122.5,-125.0,122.5,327.5,215.0,227.5,240.0,240.0,567.5,28/M-O-U/93/PL,567.5,33,531.56,,,,,,,
A,Jake Morter,UEA,U23,90.70,93,1,,,,190.0,207.5,-217.5,207.5,,125.0,135.0,-142.5,135.0,342.5,210.0,225.0,-232.5,225.0,567.5,6/M-O-U/93/PL,567.5,34,526.86,,,,,,,
B,Joshua Gibson,BIRM,U23,84.30,93,22,,,,195.0,-210.0,215.0,215.0,7,127.5,135.0,-140.0,135.0,350.0,215.0,-225.0,-225.0,215.0,565.0,29/M-O-U/93/PL,565.0,35,550.80,,,,,,,
A,Andrew Siu,LSE,U23,91.90,93,7,,,,-205.0,205.0,220.0,220.0,,112.5,120.0,-125.0,120.0,340.0,210.0,217.5,225.0,225.0,565.0,30/M-O-U/93/PL,565.0,36,519.62,,,,,,,
A,Elliot Vaughan,CAM,U23,89.90,93,8,,,,167.5,175.0,182.5,182.5,11,-115.0,115.0,120.0,120.0,302.5,232.5,247.5,257.5,257.5,560.0,31/M-O-U/93/PL,560.0,37,521.85,,,,,,,
B,Steven Smithies,CAM,U23,85.10,93,4,,,,175.0,190.0,-197.5,190.0,8,130.0,140.0,142.5,142.5,332.5,210.0,225.0,-237.5,225.0,557.5,32/M-O-U/93/PL,557.5,38,538.84,,,,,,,
A,Scott Foster,SOTON,U23,87.90,93,10,,,,195.0,205.0,212.5,212.5,,112.5,-120.0,120.0,120.0,332.5,200.0,217.5,225.0,225.0,557.5,7/M-O-U/93/PL,557.5,39,527.07,,,,,,,
A,Wei Hong Hii,LEEDS,U23,89.50,93,13,,,,200.0,-212.5,-212.5,200.0,,105.0,-112.5,112.5,112.5,312.5,-230.0,-245.0,245.0,245.0,557.5,8/M-O-U/93/PL,557.5,40,520.70,,,,,,,
A,Liam Collins,YORK,U23,86.50,93,5,,,,170.0,185.0,200.0,200.0,,110.0,117.5,122.5,122.5,322.5,200.0,215.0,227.5,227.5,550.0,9/M-O-U/93/PL,550.0,41,524.54,,,,,,,
A,Jaspal Panesar,SUX,U23,89.20,93,3,,,,170.0,180.0,190.0,190.0,,97.5,105.0,-110.0,105.0,295.0,242.5,255.0,-265.0,255.0,550.0,10/M-O-U/93/PL,550.0,42,513.71,,,,,,,
A,Ben Humphrey,BGR?,U23,90.90,93,1,,,,185.0,-192.5,-192.5,185.0,10,110.0,-115.0,115.0,115.0,300.0,230.0,250.0,-255.0,250.0,550.0,33/M-O-U/93/PL,550.0,43,507.25,,,,,,,
C,Abdal Qadir Zafar,EXR,U23,88.50,93,11,,,,180.0,190.0,200.0,200.0,,115.0,120.0,-127.5,120.0,320.0,197.5,212.5,227.5,227.5,547.5,11/M-O-U/93/PL,547.5,44,513.72,,,,,,,
A,Danilo Puliafito,SMUL,Senior,90.50,93,31,,,,170.0,172.5,180.0,180.0,,110.0,115.0,-120.0,115.0,295.0,220.0,235.0,252.5,252.5,547.5,12/M-O-U/93/PL,547.5,45,506.05,,,,,,,
C,Jack I'Anson,NEW,U23,83.30,93,28,,,,195.0,-205.0,210.0,210.0,,105.0,112.5,-115.0,112.5,322.5,200.0,210.0,220.0,220.0,542.5,13/M-O-U/93/PL,542.5,46,529.87,,,,,,,
A,Gabriel Hinrichsen,SUX,U23,90.70,93,9,,,,170.0,180.0,-190.0,180.0,,105.0,112.5,-120.0,112.5,292.5,240.0,250.0,-260.0,250.0,542.5,14/M-O-U/93/PL,542.5,47,499.92,,,,,,,
B,Mustafa Mohamed ,BIRM,Senior,92.80,93,12,,,,175.0,185.0,-192.5,185.0,,115.0,120.0,-122.5,120.0,305.0,235.0,-255.0,-255.0,235.0,540.0,15/M-O-U/93/PL,540.0,48,489.69,,,,,,,
C,Alexander Kollier-Turner,BRN,Senior,85.80,93,30,,,,182.5,192.5,200.0,200.0,,115.0,120.0,,120.0,320.0,190.0,205.0,210.0,210.0,530.0,16/M-O-U/93/PL,530.0,49,505.21,,,,,,,
B,Ollie Odell,BIRM,U23,88.40,93,24,,,,160.0,170.0,180.0,180.0,,115.0,120.0,125.0,125.0,305.0,205.0,-215.0,225.0,225.0,530.0,17/M-O-U/93/PL,530.0,50,494.97,,,,,,,
C,Alexander Larionov,ICL,U23,85.60,93,27,,,,145.0,160.0,167.5,167.5,,115.0,125.0,-132.5,125.0,292.5,210.0,230.0,-250.0,230.0,522.5,18/M-O-U/93/PL,522.5,51,497.66,,,,,,,
C,Eamon Alsaffer,WARK,U23,84.40,93,29,,,,170.0,180.0,-187.5,180.0,,117.5,122.5,-125.0,122.5,302.5,200.0,217.5,-227.5,217.5,520.0,19/M-O-U/93/PL,520.0,52,499.76,,,,,,,
A,Nikhil Bachhawat,ICL,U23,90.30,93,2,,,,170.0,177.5,-182.5,177.5,,112.5,-120.0,-120.0,112.5,290.0,230.0,-245.0,-245.0,230.0,520.0,20/M-O-U/93/PL,520.0,53,477.09,,,,,,,
C,Gabriel Kassayle,ICL,U23,90.70,93,26,,,,185.0,-195.0,-195.0,185.0,,102.5,107.5,-112.5,107.5,292.5,205.0,217.5,225.0,225.0,517.5,21/M-O-U/93/PL,517.5,54,472.97,,,,,,,
C,Joshua Doherty,SURR,U23,87.50,93,35,,,,140.0,155.0,167.5,167.5,,115.0,122.5,127.5,127.5,295.0,185.0,200.0,207.5,207.5,502.5,22/M-O-U/93/PL,502.5,55,468.18,,,,,,,
C,Ben Furnham,SUX,U23,85.50,93,19,,,,180.0,190.0,-200.0,190.0,,92.5,97.5,100.0,100.0,290.0,190.0,200.0,210.0,210.0,500.0,23/M-O-U/93/PL,500.0,56,472.97,,,,,,,
B,Matthew McKenzie,SOTON,U23,91.00,93,33,,,,170.0,180.0,190.0,190.0,,110.0,117.5,120.0,120.0,310.0,175.0,190.0,-200.0,190.0,500.0,24/M-O-U/93/PL,500.0,57,453.10,,,,,,,
B,Sam Stuckey,QMUL,U23,89.40,93,25,,,,160.0,170.0,175.0,175.0,,105.0,110.0,112.5,112.5,287.5,190.0,200.0,210.0,210.0,497.5,25/M-O-U/93/PL,497.5,58,455.89,,,,,,,
C,Neythen Treloar,UCL,Senior,90.00,93,34,,,,160.0,-170.0,-170.0,160.0,,115.0,122.5,-127.5,122.5,282.5,190.0,202.5,210.0,210.0,492.5,26/M-O-U/93/PL,492.5,59,448.40,,,,,,,
C,Aled Clarridge,WARK,U23,87.10,93,32,,,,155.0,165.0,170.0,170.0,,117.5,125.0,-130.0,125.0,295.0,182.5,192.5,-200.0,192.5,487.5,27/M-O-U/93/PL,487.5,60,453.11,,,,,,,
C,Jack Biddlecombe,DUR,U23,88.20,93,36,,,,165.0,175.0,-180.0,175.0,,105.0,115.0,120.0,120.0,295.0,170.0,180.0,190.0,190.0,485.0,28/M-O-U/93/PL,485.0,61,446.45,,,,,,,
B,Louis Collins,YORK,U23,92.10,93,20,,,,147.5,160.0,172.5,172.5,,102.5,112.5,-120.0,112.5,285.0,167.5,180.0,190.0,190.0,475.0,29/M-O-U/93/PL,475.0,62,422.72,,,,,,,
A,William Lindfors,KENT,U23,83.80,93,8,,,,160.0,172.5,177.5,177.5,,97.5,100.0,-105.0,100.0,277.5,180.0,-200.0,-200.0,180.0,457.5,30/M-O-U/93/PL,457.5,63,431.70,,,,,,,
B,Raghul Mayer,QMUL,U23,92.30,93,14,,,,130.0,140.0,150.0,150.0,,97.5,-105.0,-107.5,97.5,247.5,180.0,190.0,-200.0,190.0,437.5,31/M-O-U/93/PL,437.5,64,382.09,,,,,,,
B,Henry Whitehead,CAM,U23,83.50,93,17,,,,120.0,130.0,140.0,140.0,,102.5,107.5,110.0,110.0,250.0,165.0,175.0,182.5,182.5,432.5,32/M-O-U/93/PL,432.5,65,404.53,,,,,,,
B,Toby Mackay,SMUL,U23,84.90,93,15,,,,135.0,145.0,152.5,152.5,,80.0,87.5,-92.5,87.5,240.0,170.0,177.5,190.0,190.0,430.0,33/M-O-U/93/PL,430.0,66,396.89,,,,,,,
C,Kyle Davies,BGR,U23,89.60,93,16,,,,145.0,155.0,162.5,162.5,,85.0,-90.0,-90.0,85.0,247.5,170.0,-180.0,-180.0,170.0,417.5,34/M-O-U/93/PL,417.5,67,368.37,,,,,,,
A,Archie Pullan,EXR,U23,88.80,93,7,,,,92.5,102.5,115.0,115.0,,77.5,85.0,87.5,87.5,202.5,117.5,125.0,130.0,130.0,332.5,35/M-O-U/93/PL,332.5,68,277.99,,,,,,,
A,Tom Butts,LBORO,U23,89.30,93,6,,,,-190.0,190.0,-200.0,190.0,,135.0,-140.0,-140.0,135.0,325.0,-225.0,-225.0,,0.0,0.0,,0.0,,0.00,,,,,,,
B,Tom Ruddy,NOTT,U23,91.30,93,6,,,,177.5,-187.5,-187.5,177.5,9,130.0,-137.5,-137.5,130.0,307.5,0.0,0.0,0.0,0.0,0.0,,0.0,,0.00,,,,,,,
A,Abdul Majeed (Mo),NEW,Senior,97.95,105,3,,MCP,16,245.0,260.0,-273.0,260.0,9,160.0,165.0,170.0,170.0,430.0,280.0,295.0,310.5,310.5,740.5,1/M-O-U/105/PL,740.5,1,679.63,1732.38,PL,,,13/04/2019,,
A,Rowen Henson,YORK,Senior,103.05,105,6,,MCP,15,237.5,255.0,262.5,262.5,8,162.5,170.0,-177.5,170.0,432.5,262.5,280.0,-290.0,280.0,712.5,2/M-O-U/105/PL,712.5,2,630.81,1607.93,PL,,,13/04/2019,,
A,Dan O'Leary,EXR,U23,103.75,105,9,,MCP,18,240.0,252.5,260.0,260.0,11,155.0,162.5,167.5,167.5,427.5,260.0,272.5,-287.5,272.5,700.0,3/M-O-U/105/PL,700.0,3,615.72,1569.48,PL,,,13/04/2019,,
A,Michael Pierides,SOTON,U23,95.90,105,22,,MCP,15,225.0,240.0,250.0,250.0,7,-145.0,152.5,160.0,160.0,410.0,240.0,255.0,270.0,270.0,680.0,4/M-O-U/105/PL,680.0,4,625.42,1594.21,PL,,,13/04/2019,,
A,Kyle Renwick,LBORO,Senior,103.60,105,8,,MCP,18,227.5,242.5,252.5,252.5,10,137.5,145.0,-150.0,145.0,397.5,245.0,265.0,280.0,280.0,677.5,5/M-O-U/105/PL,677.5,5,593.73,1513.43,PL,,,13/04/2019,,
A,Tom Watton,SHEFF,U23,101.20,105,4,,MCP,12,240.0,-250.0,255.0,255.0,9,145.0,155.0,-160.0,155.0,410.0,240.0,260.0,-275.0,260.0,670.0,6/M-O-U/105/PL,670.0,6,594.70,1515.88,PL,,,13/04/2019,,
D,Ming Lau,LBORO,U23,103.30,105,22,,MCP,15,230.0,247.5,255.0,255.0,9,145.0,152.5,-157.5,152.5,407.5,230.0,245.0,260.0,260.0,667.5,7/M-O-U/105/PL,667.5,1,584.75,1490.54,PL,,,13/04/2019,,
A,Rashed Lootah,,U23,101.85,105,5,,MCP,18,205.0,207.5,-225.0,207.5,9,-115.0,125.0,130.0,130.0,337.5,267.5,285.0,300.0,300.0,637.5,8/M-O-U/105/PL,637.5,7,559.52,1426.22,PL,,,13/04/2019,,
A,Joe Bannister,NEW,U23,95.15,105,21,,MCP,17,-210.0,210.0,230.0,230.0,9,135.0,140.0,-145.0,140.0,370.0,245.0,260.0,-270.0,260.0,630.0,9/M-O-U/105/PL,630.0,8,576.09,1468.45,PL,,,13/04/2019,,
D,Tom Glassock,BIRM,U23,103.25,105,21,,MCP,17,215.0,227.5,-235.0,227.5,10,125.0,130.0,132.5,132.5,360.0,245.0,255.0,-262.5,255.0,615.0,10/M-O-U/105/PL,615.0,2,532.26,1356.73,PL,,,13/04/2019,,
A,Aaron Wade,UCL,U23,96.25,105,2,,MCP,17,200.0,210.0,217.5,217.5,9,130.0,-135.0,-135.0,130.0,347.5,252.5,260.0,-285.0,260.0,607.5,11/M-O-U/105/PL,607.5,9,548.43,1397.95,PL,,,13/04/2019,,
A,Thomas Linley,BIRM,U23,100.50,105,12,,MCP,20,170.0,185.0,195.0,195.0,13,130.0,137.5,-145.0,137.5,332.5,240.0,257.5,272.5,272.5,605.0,12/M-O-U/105/PL,605.0,3,531.09,1353.75,PL,,,13/04/2019,,
D,Diwas Limbu,CHIR,Senior,101.50,105,14,,MCP,15,220.0,230.0,240.0,240.0,8,130.0,137.5,-140.0,137.5,377.5,200.0,210.0,227.5,227.5,605.0,13/M-O-U/105/PL,605.0,4,527.81,1345.39,PL,,,13/04/2019,,
D,Jack Tulloch,EXR,U23,94.45,105,6,,MCP,18,205.0,215.0,217.5,217.5,10,132.5,140.0,145.0,145.0,362.5,240.0,-250.0,-250.0,240.0,602.5,14/M-O-U/105/PL,602.5,5,549.86,1401.58,PL,,,13/04/2019,,
A,Tosin Ososami,UCL,Senior,95.85,105,8,,MCP,16,180.0,190.0,200.0,200.0,10,127.5,135.0,140.0,140.0,340.0,-237.5,245.0,260.0,260.0,600.0,15/M-O-U/105/PL,600.0,6,542.06,1381.71,PL,,,13/04/2019,,
A,Max Jordan Dooley,NOTT,Senior,96.10,105,1,,MCP,16,205.0,207.5,215.0,215.0,10,120.0,125.0,130.0,130.0,345.0,235.0,247.5,-255.0,247.5,592.5,16/M-O-U/105/PL,592.5,10,533.33,1359.47,PL,,,13/04/2019,,
D,Barnie Skinner,LBORO,U23,97.80,105,10,,MCP,18,190.0,200.0,207.5,207.5,10,135.0,145.0,152.5,152.5,360.0,230.0,-245.0,-245.0,230.0,590.0,17/M-O-U/105/PL,590.0,7,524.80,1337.72,PL,,,13/04/2019,,
D,Tom Bugler,LBORO,U23,99.00,105,11,,MCP,16,190.0,197.5,205.0,205.0,,145.0,152.5,155.0,155.0,360.0,200.0,215.0,225.0,225.0,585.0,18/M-O-U/105/PL,585.0,8,515.62,1314.31,PL,,,13/04/2019,,
D,Adam Rochussen,CAM,U23,97.70,105,9,,MCP,16,177.5,190.0,200.0,200.0,12,120.0,125.0,130.0,130.0,330.0,232.5,242.5,252.5,252.5,582.5,19/M-O-U/105/PL,582.5,9,517.39,1318.83,PL,,,13/04/2019,,
A,Themis Karavellas,NEW,Senior,103.20,105,7,,MCP,17,205.0,215.0,-220.0,215.0,11,150.0,157.5,-162.5,157.5,372.5,210.0,-220.0,-220.0,210.0,582.5,20/M-O-U/105/PL,582.5,11,499.81,1274.02,PL,,,13/04/2019,,
C,Jack Roose,,Senior,101.00,105,13,,MCP,18,150.0,160.0,170.0,170.0,12,115.0,120.0,-125.0,120.0,290.0,260.0,270.0,-272.5,270.0,560.0,21/M-O-U/105/PL,560.0,10,483.76,1233.12,PL,,,13/04/2019,,
C,kieron evans,NOTT,U23,103.25,105,20,,MCP,16,195.0,205.0,210.0,210.0,11,125.0,132.5,-140.0,132.5,342.5,190.0,205.0,212.5,212.5,555.0,22/M-O-U/105/PL,555.0,11,472.07,1203.31,PL,,,13/04/2019,,
D,Ho Ip,BIRM,Senior,101.55,105,15,,MCP,16,180.0,190.0,-200.0,190.0,10,107.5,115.0,122.5,122.5,312.5,220.0,-230.0,230.0,230.0,542.5,23/M-O-U/105/PL,542.5,12,464.39,1183.74,PL,,,13/04/2019,,
C,Aleksander Kolodziejczyk,LBORO,U23,101.65,105,16,,MCP,15,170.0,182.5,190.0,190.0,7,135.0,142.5,147.5,147.5,337.5,185.0,197.5,205.0,205.0,542.5,24/M-O-U/105/PL,542.5,13,464.10,1183.00,PL,,,13/04/2019,,
D,Ernest Wong,OXF,U23,93.50,105,4,,MCP,20,-175.0,-175.0,175.0,175.0,10,105.0,110.0,-112.5,110.0,285.0,-215.0,215.0,-225.0,215.0,500.0,25/M-O-U/105/PL,500.0,14,444.90,1134.04,PL,,,13/04/2019,,
C,Simeon Kalcut,NOTT,U23,94.70,105,7,,MCP,13,-172.5,172.5,185.0,185.0,11,107.5,112.5,117.5,117.5,302.5,182.5,197.5,-202.5,197.5,500.0,26/M-O-U/105/PL,500.0,15,441.12,1124.42,PL,,,13/04/2019,,
C,Samuel Freeman,,U23,102.35,105,18,,MCP,21,-170.0,170.0,182.5,182.5,9,-95.0,97.5,102.5,102.5,285.0,180.0,195.0,205.0,205.0,490.0,27/M-O-U/105/PL,490.0,16,409.17,1042.98,PL,,,13/04/2019,,
A,Jack de Lancey,LBORO,U23,93.40,105,3,,MCP,22,135.0,150.0,160.0,160.0,12,115.0,120.0,125.0,125.0,285.0,170.0,185.0,-195.0,185.0,470.0,28/M-O-U/105/PL,470.0,17,413.42,1053.80,PL,,,13/04/2019,,
C,Uzair Ghaffar,BIRM,U23,102.35,105,17,,MCP,15,-150.0,150.0,167.5,167.5,9,75.0,-82.5,82.5,82.5,250.0,165.0,177.5,-182.5,177.5,427.5,29/M-O-U/105/PL,427.5,18,346.18,882.42,PL,,,13/04/2019,,
D,William Fox,OXF,U23,93.90,105,5,,MCP,15,200.0,210.0,-215.0,210.0,9,-145.0,-145.0,-145.0,0.0,0.0,-200.0,,,0.0,0.0,,0.0,,0.00,0.00,PL,,,13/04/2019,,
C,Amr Wahied Mohamed,SURR,Senior,103.20,105,19,,MCP,14,180.0,-200.0,200.0,200.0,11,105.0,112.5,-117.5,112.5,312.5,-220.0,-220.0,-220.0,0.0,0.0,,0.0,,0.00,0.00,PL,,,13/04/2019,,
B,Aron Hegedus,OXF,U23,105.10,120,10,,MCP,18,255.0,273.0,285.0,285.0,10,165.0,175.5,178.0,178.0,463.0,290.0,-317.5,-333.0,290.0,753.0,1/M-O-U/120/PL,753.0,1,663.61,1691.54,PL,,,13/04/2019,,
B,Jack Dunkley,NOTT,Senior,111.70,120,12,,MCP,16,240.0,252.5,-260.0,252.5,10,165.0,172.5,-176.0,172.5,425.0,270.0,290.0,-292.5,290.0,715.0,2/M-O-U/120/PL,715.0,2,603.71,1538.84,PL,,,13/04/2019,,
B,Elliot Leadbeater,SOTON,U23,114.30,120,15,,MCP,19,240.0,252.5,260.0,260.0,12,155.0,165.0,-170.0,165.0,425.0,262.5,275.0,290.0,290.0,715.0,3/M-O-U/120/PL,715.0,3,595.70,1518.43,PL,,,13/04/2019,,
B,Jack Smith,LBORO,U23,110.85,120,11,,MCP,19,245.0,260.0,270.0,270.0,9,140.0,152.5,160.0,160.0,430.0,245.0,265.0,282.5,282.5,712.5,4/M-O-U/120/PL,712.5,4,603.99,1539.57,PL,,,13/04/2019,,
B,Lewis Harding,KENT,U23,115.70,120,16,,MCP,17,235.0,250.0,-260.0,250.0,14,162.5,-167.5,,162.5,412.5,295.0,300.0,,300.0,712.5,5/M-O-U/120/PL,712.5,5,589.17,1501.79,PL,,,13/04/2019,,
B,Hector van Smirren,OXF,U23,112.35,120,13,,MCP,19,220.0,235.0,242.5,242.5,10,145.0,152.5,157.5,157.5,400.0,255.0,272.5,-285.0,272.5,672.5,6/M-O-U/120/PL,672.5,6,560.87,1429.67,PL,,,13/04/2019,,
B,Richard Tatton,SMT,U23,114.00,120,14,,MCP,18,235.0,245.0,250.0,250.0,12,155.0,-160.0,-160.0,155.0,405.0,260.0,267.5,-275.0,267.5,672.5,7/M-O-U/120/PL,672.5,7,556.11,1417.52,PL,,,13/04/2019,,
B,Josh Mason,SURR,U23,116.40,120,17,,MCP,14,180.0,190.0,200.0,200.0,9,130.0,-140.0,-140.0,130.0,330.0,240.0,-255.0,-255.0,240.0,570.0,8/M-O-U/120/PL,570.0,8,452.78,1154.14,PL,,,13/04/2019,,
B,Jack Brennan,LEEDS,U23,141.00,120+,19,,MCP,19,285.0,295.0,305.0,305.0,10,175.0,182.5,-187.5,182.5,487.5,255.0,270.0,282.5,282.5,770.0,1/M-O-U/120+/PL,770.0,1,577.71,1472.58,PL,,,13/04/2019,,
B,Robert Gainlall,DEM,U23,151.10,120+,20,,MCP,21 in,245.0,260.0,272.5,272.5,11,160.0,170.0,175.0,175.0,447.5,275.0,287.5,292.5,292.5,740.0,2/M-O-U/120+/PL,740.0,2,532.40,1357.08,PL,,,13/04/2019,,
B,Chijim Onyemenam,UCL,Senior,138.65,120+,18,,MCP,17,230.0,247.5,270.0,270.0,12,150.0,162.5,-172.5,162.5,432.5,250.0,270.0,285.0,285.0,717.5,3/M-O-U/120+/PL,717.5,3,537.33,1369.67,PL,,,13/04/2019,,
