Name,Age,Sex,Division,BodyweightKg,WeightClassKg,Squat1Kg,Squat2Kg,Squat3Kg,Squat4Kg,Best3SquatKg,Bench1Kg,Bench2Kg,Bench3Kg,Bench4Kg,Best3BenchKg,Deadlift1Kg,Deadlift2Kg,Deadlift3Kg,Deadlift4Kg,Best3DeadliftKg,TotalKg,Event,Equipment,Place
Lyndsay Cunningham,59,F,Masters 4,51.4,52,,,,,,40,42.5,47.5,50,47.5,,,,,,47.5,B,Raw,1
Mua Moors,33,F,Submasters,52.8,56,,,,,,32.5,40,-50,50,40,,,,,,40,B,Raw,1
Kate Mitchell-Roggeveen,28,F,Open,81.3,82.5,,,,,,125,135,142.5,147.5,142.5,,,,,,142.5,B,Raw,1
Jess White,23,F,Juniors,85.2,90,,,,,,50,55,-57.5,,55,,,,,,55,B,Raw,1
Duncan Tanner,46,M,Masters 2,123.2,125,,,,,,-240,-245,-245,,,,,,,,,B,Multi-ply,DQ
Dale Shepherd,46,M,Masters 2,106.2,110,,,,,,-223,223,-228,,223,,,,,,223,B,Raw,1
Hamish Coulter,34,M,Submasters,126.5,140,,,,,,210,222.5,223.5,,223.5,,,,,,223.5,B,Raw,1
Steve Hampton,48,M,Masters 2,107.9,110,280,300,-310,,300,185,200,-212.5,,200,230,255.5,,,255.5,755.5,SBD,Multi-ply,1
Les Wroe,28,M,Open,124,125,310,330,-340,,330,220,-235,-235,,220,300,-320,-320,,300,850,SBD,Multi-ply,1
Tim Taylor #5,55,M,Masters 4,88.4,90,130,140,150,,150,85,-95,-100,,85,180,195,200,,200,435,SBD,Wraps,1
Colin Cox,57,M,Masters 4,136.2,140,255,275,285,292.5,285,157.5,170.5,-175,,170.5,250,-270,,,250,705.5,SBD,Wraps,1
Bernie Hall,41,M,Masters 1,95.8,100,180,-185,190,-192.5,190,135,140,142.5,145,142.5,250,255,260,-265,260,592.5,SBD,Wraps,1
Pete Kemp,40,M,Masters 1,80.2,82.5,205,215,225,,225,115,122.5,127.5,,127.5,215,230,240,,240,592.5,SBD,Wraps,1
Don D'Ewes,40,M,Masters 1,125.1,140,200,,,,200,180,,,,180,305,-322.5,,,305,685,SBD,Wraps,1
Jarrod Collins,37,M,Submasters,81.4,82.5,240,250,260,,260,130,140,145,,145,260,275,282.5,,282.5,687.5,SBD,Wraps,1
Che Soffe,38,M,Submasters,105.3,110,180,200,-220,,200,105,110,-115,,110,180,200,220,,220,530,SBD,Wraps,2
Eddie Marshall,35,M,Submasters,102.2,110,265,-280,285,,285,180,190,-195,,190,270,285,300,,300,775,SBD,Wraps,1
Jamie Marshall,36,M,Submasters,124,125,315,-340,340,,340,210,220,-235,,220,300,310,-320,,310,870,SBD,Wraps,1
Harry Stevens,24,M,Open,84.8,90,125,130,135,,135,85,-90,-90,,85,165,175,-182.5,,175,395,SBD,Wraps,3
Jamie Whitehead,30,M,Open,65.8,67.5,140,-155,-162.5,,140,85,-95,-100,,85,-150,160,170,-180,170,395,SBD,Wraps,1
Adam Renall,25,M,Open,91,100,160,175,185,,185,105,110,115,,115,200,220,-240,,220,520,SBD,Wraps,3
Nick Prendergast,27,M,Open,85.1,90,210,220,230,,230,140,150,,,150,260,280,290,,290,670,SBD,Wraps,2
Dhiren Dunraj,29,M,Open,74.9,75,215,230,-240,,230,140,-150,150,,150,230,245,-250,,245,625,SBD,Wraps,1
Bryn Ealey,26,M,Open,87.8,90,-220,240,260,,260,142.5,152.5,162.5,,162.5,220,260,285,300,285,707.5,SBD,Wraps,1
Tupou Taani,27,M,Open,98.6,100,230,-250,-250,,230,-200,200,-215,,200,230,-250,-250,,230,660,SBD,Wraps,2
Elliot Hendry,29,M,Open,100,100,240,255,-270,,255,175,-185,-185,,175,250,-275,,,250,680,SBD,Wraps,1
Errol Taylor,27,M,Open,119.5,125,-220,230,245,,245,160,170,180,,180,260,270,-280,,270,695,SBD,Wraps,2
Jamahl Beattie,27,M,Open,111.3,125,210,220,-240,,220,165,172.5,-180,,172.5,-270,270,,,270,662.5,SBD,Wraps,3
Brogan Williams,26,M,Open,161.7,140+,310,332.5,350,,350,-180,185,195,,195,250,265,280,,280,825,SBD,Wraps,1
Ben Holmes,31,M,Open,126,140,290,310,320,,320,180,200,210,,210,320,-335,335,-345,335,865,SBD,Wraps,1
Tawa Campbell,29,M,Open,121.2,125,300,315,322.5,,322.5,190,202.5,207.5,,207.5,300,-320,,,300,830,SBD,Wraps,1
Eru Leokava-Taani,32,M,Open,107.5,110,270,290,300,,300,220,-230,,,220,250,275,-280,,275,795,SBD,Wraps,1
Zane Watling,22,M,Juniors,87.6,90,145,155,165,,165,87.5,95,102.5,,102.5,170,190,200,,200,467.5,SBD,Wraps,1
Tyrone Tomlinson,19,M,Teen 3,98,100,220,230,240,,240,142.5,150,-160,,150,230,245,260,,260,650,SBD,Wraps,1
Rachel Ah Kit,45,F,Masters 2,58.6,60,60,70,77.5,,77.5,45,50,55,,55,85,95,102.5,,102.5,235,SBD,Wraps,1
Joanne Newman,56,F,Masters 4,75.6,82.5,80,-87.5,87.5,,87.5,50,55,-57.5,,55,115,122.5,,,122.5,265,SBD,Wraps,1
Mary Davenport,48,F,Masters 2,78.8,82.5,70,77.5,85,,85,40,-45,47.5,,47.5,90,100,107.5,,107.5,240,SBD,Wraps,2
Margaret Taylor,57,F,Masters 4,83.6,90,105,115,120,,120,55,60,-62.5,,60,120,131,135,,135,315,SBD,Wraps,1
Lisa Lewis,48,F,Masters 2,96.3,110,110,120,-130,130,120,62.5,-67.5,70,72.5,70,120,132.5,140,147.5,140,330,SBD,Wraps,1
Denise Moore,52,F,Masters 3,98.1,110,-80,-80,-82.5,,,47.5,52.5,-55,,52.5,107.5,112.5,-117.5,,112.5,,SBD,Wraps,DQ
Johanna Smith,22,F,Open,73.2,75,120,130,-135,,130,65,70,-73,,70,130,140,,,140,340,SBD,Wraps,2
Akisha Moore,20,F,Open,72.1,75,105,110,-112.5,,110,45,47.5,-50,,47.5,110,117.5,125,,125,282.5,SBD,Wraps,4
Poppy Ferguson,24,F,Open,57,60,120,127.5,135,,135,65,70,,,70,130,140,145,,145,350,SBD,Wraps,1
Esleigh Saxe,24,F,Open,65.8,67.5,130,-142.5,142.5,150,142.5,70,75,-77.5,,75,140,150,157.5,160.5,157.5,375,SBD,Wraps,1
Mary Egan,27,F,Open,66.4,67.5,105,115,-120,,115,55,60,62.5,,62.5,120,132.5,140,,140,317.5,SBD,Wraps,2
Anna McCardle,39,F,Open,74.8,75,120,130,140,-145,140,77.5,-82.5,82.5,,82.5,130,-150,-151,,130,352.5,SBD,Wraps,1
Genelle Vanderschantz,24,F,Open,69.2,75,105,112.5,115,,115,50,52.5,55,,55,125,130,-135,,130,300,SBD,Wraps,3
Jessica Eade,24,F,Open,81.2,82.5,95,105,112.5,,112.5,57.5,60,-62.5,,60,117.5,122.5,130,,130,302.5,SBD,Wraps,1
Lynne Wilson,27,F,Open,76.4,82.5,80,90,95,,95,-55,-60,-62.5,,,105,115,125,,125,,SBD,Wraps,DQ
Josie Stanford,31,F,Open,114.4,110+,175,190,205,,205,80,85.5,-90,,85.5,175,190.5,-210,,190.5,481,SBD,Wraps,1
